digital/xfire_fpu_bkm/verification/add_subb/reports/add_subb.seq_test.simv.log
Command: ./simv -ucli -do simv.tcl -l ../reports/add_subb.seq_test.simv.log +TESTSEED=3438722610 +VERBOSITY=0
Chronologic VCS simulator copyright 1991-2014
Contains Synopsys proprietary information.
Compiler version I-2014.03; Runtime version I-2014.03;  Jun 10 17:43 2016
ucli% run

*******************************************************
Test Seed:   856244686
*******************************************************

Time =        0 subb_a = x subb_b = x tb_a =           x tb_b =           x tb_s = x           x s_res = x           x

Time =    26000 subb_a = 0 subb_b = 0 tb_a =      0 tb_b =      0 tb_s = 0      0 s_res = 0      0

Time =    36000 subb_a = 0 subb_b = 0 tb_a =      0 tb_b =      1 tb_s = 0      1 s_res = 0      1

Time =    46000 subb_a = 0 subb_b = 0 tb_a =      0 tb_b =      2 tb_s = 0      2 s_res = 0      2

Time =    56000 subb_a = 0 subb_b = 0 tb_a =      0 tb_b =      3 tb_s = 0      3 s_res = 0      3

Time =    66000 subb_a = 0 subb_b = 0 tb_a =      0 tb_b =      4 tb_s = 0      4 s_res = 0      4

Time =    76000 subb_a = 0 subb_b = 0 tb_a =      0 tb_b =      5 tb_s = 0      5 s_res = 0      5

Time =    86000 subb_a = 0 subb_b = 0 tb_a =      0 tb_b =      6 tb_s = 0      6 s_res = 0      6

Time =    96000 subb_a = 0 subb_b = 0 tb_a =      0 tb_b =      7 tb_s = 0      7 s_res = 0      7

Time =   106000 subb_a = 0 subb_b = 0 tb_a =      0 tb_b =     -8 tb_s = 1     -8 s_res = 0     -8

[115] WARNING: 	Expected result: 1 1000
			Obtained result: 0 1000		. Instance: tb_add_subb
Time =   116000 subb_a = 0 subb_b = 0 tb_a =      0 tb_b =     -7 tb_s = 1     -7 s_res = 0     -7

[125] WARNING: 	Expected result: 1 1001
			Obtained result: 0 1001		. Instance: tb_add_subb
Time =   126000 subb_a = 0 subb_b = 0 tb_a =      0 tb_b =     -6 tb_s = 1     -6 s_res = 0     -6

[135] WARNING: 	Expected result: 1 1010
			Obtained result: 0 1010		. Instance: tb_add_subb
Time =   136000 subb_a = 0 subb_b = 0 tb_a =      0 tb_b =     -5 tb_s = 1     -5 s_res = 0     -5

[145] WARNING: 	Expected result: 1 1011
			Obtained result: 0 1011		. Instance: tb_add_subb
Time =   146000 subb_a = 0 subb_b = 0 tb_a =      0 tb_b =     -4 tb_s = 1     -4 s_res = 0     -4

[155] WARNING: 	Expected result: 1 1100
			Obtained result: 0 1100		. Instance: tb_add_subb
Time =   156000 subb_a = 0 subb_b = 0 tb_a =      0 tb_b =     -3 tb_s = 1     -3 s_res = 0     -3

[165] WARNING: 	Expected result: 1 1101
			Obtained result: 0 1101		. Instance: tb_add_subb
Time =   166000 subb_a = 0 subb_b = 0 tb_a =      0 tb_b =     -2 tb_s = 1     -2 s_res = 0     -2

[175] WARNING: 	Expected result: 1 1110
			Obtained result: 0 1110		. Instance: tb_add_subb
Time =   176000 subb_a = 0 subb_b = 0 tb_a =      0 tb_b =     -1 tb_s = 1     -1 s_res = 0     -1

[185] WARNING: 	Expected result: 1 1111
			Obtained result: 0 1111		. Instance: tb_add_subb
Time =   186000 subb_a = 0 subb_b = 0 tb_a =      1 tb_b =      0 tb_s = 0      1 s_res = 0      1

Time =   196000 subb_a = 0 subb_b = 0 tb_a =      1 tb_b =      1 tb_s = 0      2 s_res = 0      2

Time =   206000 subb_a = 0 subb_b = 0 tb_a =      1 tb_b =      2 tb_s = 0      3 s_res = 0      3

Time =   216000 subb_a = 0 subb_b = 0 tb_a =      1 tb_b =      3 tb_s = 0      4 s_res = 0      4

Time =   226000 subb_a = 0 subb_b = 0 tb_a =      1 tb_b =      4 tb_s = 0      5 s_res = 0      5

Time =   236000 subb_a = 0 subb_b = 0 tb_a =      1 tb_b =      5 tb_s = 0      6 s_res = 0      6

Time =   246000 subb_a = 0 subb_b = 0 tb_a =      1 tb_b =      6 tb_s = 0      7 s_res = 0      7

Time =   256000 subb_a = 0 subb_b = 0 tb_a =      1 tb_b =      7 tb_s = 0     -8 s_res = 0     -8

Time =   266000 subb_a = 0 subb_b = 0 tb_a =      1 tb_b =     -8 tb_s = 1     -7 s_res = 0     -7

[275] WARNING: 	Expected result: 1 1001
			Obtained result: 0 1001		. Instance: tb_add_subb
Time =   276000 subb_a = 0 subb_b = 0 tb_a =      1 tb_b =     -7 tb_s = 1     -6 s_res = 0     -6

[285] WARNING: 	Expected result: 1 1010
			Obtained result: 0 1010		. Instance: tb_add_subb
Time =   286000 subb_a = 0 subb_b = 0 tb_a =      1 tb_b =     -6 tb_s = 1     -5 s_res = 0     -5

[295] WARNING: 	Expected result: 1 1011
			Obtained result: 0 1011		. Instance: tb_add_subb
Time =   296000 subb_a = 0 subb_b = 0 tb_a =      1 tb_b =     -5 tb_s = 1     -4 s_res = 0     -4

[305] WARNING: 	Expected result: 1 1100
			Obtained result: 0 1100		. Instance: tb_add_subb
Time =   306000 subb_a = 0 subb_b = 0 tb_a =      1 tb_b =     -4 tb_s = 1     -3 s_res = 0     -3

[315] WARNING: 	Expected result: 1 1101
			Obtained result: 0 1101		. Instance: tb_add_subb
Time =   316000 subb_a = 0 subb_b = 0 tb_a =      1 tb_b =     -3 tb_s = 1     -2 s_res = 0     -2

[325] WARNING: 	Expected result: 1 1110
			Obtained result: 0 1110		. Instance: tb_add_subb
Time =   326000 subb_a = 0 subb_b = 0 tb_a =      1 tb_b =     -2 tb_s = 1     -1 s_res = 0     -1

[335] WARNING: 	Expected result: 1 1111
			Obtained result: 0 1111		. Instance: tb_add_subb
Time =   336000 subb_a = 0 subb_b = 0 tb_a =      1 tb_b =     -1 tb_s = 0      0 s_res = 1      0

[345] WARNING: 	Expected result: 0 0000
			Obtained result: 1 0000		. Instance: tb_add_subb
Time =   346000 subb_a = 0 subb_b = 0 tb_a =      2 tb_b =      0 tb_s = 0      2 s_res = 0      2

Time =   356000 subb_a = 0 subb_b = 0 tb_a =      2 tb_b =      1 tb_s = 0      3 s_res = 0      3

Time =   366000 subb_a = 0 subb_b = 0 tb_a =      2 tb_b =      2 tb_s = 0      4 s_res = 0      4

Time =   376000 subb_a = 0 subb_b = 0 tb_a =      2 tb_b =      3 tb_s = 0      5 s_res = 0      5

Time =   386000 subb_a = 0 subb_b = 0 tb_a =      2 tb_b =      4 tb_s = 0      6 s_res = 0      6

Time =   396000 subb_a = 0 subb_b = 0 tb_a =      2 tb_b =      5 tb_s = 0      7 s_res = 0      7

Time =   406000 subb_a = 0 subb_b = 0 tb_a =      2 tb_b =      6 tb_s = 0     -8 s_res = 0     -8

Time =   416000 subb_a = 0 subb_b = 0 tb_a =      2 tb_b =      7 tb_s = 0     -7 s_res = 0     -7

Time =   426000 subb_a = 0 subb_b = 0 tb_a =      2 tb_b =     -8 tb_s = 1     -6 s_res = 0     -6

[435] WARNING: 	Expected result: 1 1010
			Obtained result: 0 1010		. Instance: tb_add_subb
Time =   436000 subb_a = 0 subb_b = 0 tb_a =      2 tb_b =     -7 tb_s = 1     -5 s_res = 0     -5

[445] WARNING: 	Expected result: 1 1011
			Obtained result: 0 1011		. Instance: tb_add_subb
Time =   446000 subb_a = 0 subb_b = 0 tb_a =      2 tb_b =     -6 tb_s = 1     -4 s_res = 0     -4

[455] WARNING: 	Expected result: 1 1100
			Obtained result: 0 1100		. Instance: tb_add_subb
Time =   456000 subb_a = 0 subb_b = 0 tb_a =      2 tb_b =     -5 tb_s = 1     -3 s_res = 0     -3

[465] WARNING: 	Expected result: 1 1101
			Obtained result: 0 1101		. Instance: tb_add_subb
Time =   466000 subb_a = 0 subb_b = 0 tb_a =      2 tb_b =     -4 tb_s = 1     -2 s_res = 0     -2

[475] WARNING: 	Expected result: 1 1110
			Obtained result: 0 1110		. Instance: tb_add_subb
Time =   476000 subb_a = 0 subb_b = 0 tb_a =      2 tb_b =     -3 tb_s = 1     -1 s_res = 0     -1

[485] WARNING: 	Expected result: 1 1111
			Obtained result: 0 1111		. Instance: tb_add_subb
Time =   486000 subb_a = 0 subb_b = 0 tb_a =      2 tb_b =     -2 tb_s = 0      0 s_res = 1      0

[495] WARNING: 	Expected result: 0 0000
			Obtained result: 1 0000		. Instance: tb_add_subb
Time =   496000 subb_a = 0 subb_b = 0 tb_a =      2 tb_b =     -1 tb_s = 0      1 s_res = 1      1

[505] WARNING: 	Expected result: 0 0001
			Obtained result: 1 0001		. Instance: tb_add_subb
Time =   506000 subb_a = 0 subb_b = 0 tb_a =      3 tb_b =      0 tb_s = 0      3 s_res = 0      3

Time =   516000 subb_a = 0 subb_b = 0 tb_a =      3 tb_b =      1 tb_s = 0      4 s_res = 0      4

Time =   526000 subb_a = 0 subb_b = 0 tb_a =      3 tb_b =      2 tb_s = 0      5 s_res = 0      5

Time =   536000 subb_a = 0 subb_b = 0 tb_a =      3 tb_b =      3 tb_s = 0      6 s_res = 0      6

Time =   546000 subb_a = 0 subb_b = 0 tb_a =      3 tb_b =      4 tb_s = 0      7 s_res = 0      7

Time =   556000 subb_a = 0 subb_b = 0 tb_a =      3 tb_b =      5 tb_s = 0     -8 s_res = 0     -8

Time =   566000 subb_a = 0 subb_b = 0 tb_a =      3 tb_b =      6 tb_s = 0     -7 s_res = 0     -7

Time =   576000 subb_a = 0 subb_b = 0 tb_a =      3 tb_b =      7 tb_s = 0     -6 s_res = 0     -6

Time =   586000 subb_a = 0 subb_b = 0 tb_a =      3 tb_b =     -8 tb_s = 1     -5 s_res = 0     -5

[595] WARNING: 	Expected result: 1 1011
			Obtained result: 0 1011		. Instance: tb_add_subb
Time =   596000 subb_a = 0 subb_b = 0 tb_a =      3 tb_b =     -7 tb_s = 1     -4 s_res = 0     -4

[605] WARNING: 	Expected result: 1 1100
			Obtained result: 0 1100		. Instance: tb_add_subb
Time =   606000 subb_a = 0 subb_b = 0 tb_a =      3 tb_b =     -6 tb_s = 1     -3 s_res = 0     -3

[615] WARNING: 	Expected result: 1 1101
			Obtained result: 0 1101		. Instance: tb_add_subb
Time =   616000 subb_a = 0 subb_b = 0 tb_a =      3 tb_b =     -5 tb_s = 1     -2 s_res = 0     -2

[625] WARNING: 	Expected result: 1 1110
			Obtained result: 0 1110		. Instance: tb_add_subb
Time =   626000 subb_a = 0 subb_b = 0 tb_a =      3 tb_b =     -4 tb_s = 1     -1 s_res = 0     -1

[635] WARNING: 	Expected result: 1 1111
			Obtained result: 0 1111		. Instance: tb_add_subb
Time =   636000 subb_a = 0 subb_b = 0 tb_a =      3 tb_b =     -3 tb_s = 0      0 s_res = 1      0

[645] WARNING: 	Expected result: 0 0000
			Obtained result: 1 0000		. Instance: tb_add_subb
Time =   646000 subb_a = 0 subb_b = 0 tb_a =      3 tb_b =     -2 tb_s = 0      1 s_res = 1      1

[655] WARNING: 	Expected result: 0 0001
			Obtained result: 1 0001		. Instance: tb_add_subb
Time =   656000 subb_a = 0 subb_b = 0 tb_a =      3 tb_b =     -1 tb_s = 0      2 s_res = 1      2

[665] WARNING: 	Expected result: 0 0010
			Obtained result: 1 0010		. Instance: tb_add_subb
Time =   666000 subb_a = 0 subb_b = 0 tb_a =      4 tb_b =      0 tb_s = 0      4 s_res = 0      4

Time =   676000 subb_a = 0 subb_b = 0 tb_a =      4 tb_b =      1 tb_s = 0      5 s_res = 0      5

Time =   686000 subb_a = 0 subb_b = 0 tb_a =      4 tb_b =      2 tb_s = 0      6 s_res = 0      6

Time =   696000 subb_a = 0 subb_b = 0 tb_a =      4 tb_b =      3 tb_s = 0      7 s_res = 0      7

Time =   706000 subb_a = 0 subb_b = 0 tb_a =      4 tb_b =      4 tb_s = 0     -8 s_res = 0     -8

Time =   716000 subb_a = 0 subb_b = 0 tb_a =      4 tb_b =      5 tb_s = 0     -7 s_res = 0     -7

Time =   726000 subb_a = 0 subb_b = 0 tb_a =      4 tb_b =      6 tb_s = 0     -6 s_res = 0     -6

Time =   736000 subb_a = 0 subb_b = 0 tb_a =      4 tb_b =      7 tb_s = 0     -5 s_res = 0     -5

Time =   746000 subb_a = 0 subb_b = 0 tb_a =      4 tb_b =     -8 tb_s = 1     -4 s_res = 0     -4

[755] WARNING: 	Expected result: 1 1100
			Obtained result: 0 1100		. Instance: tb_add_subb
Time =   756000 subb_a = 0 subb_b = 0 tb_a =      4 tb_b =     -7 tb_s = 1     -3 s_res = 0     -3

[765] WARNING: 	Expected result: 1 1101
			Obtained result: 0 1101		. Instance: tb_add_subb
Time =   766000 subb_a = 0 subb_b = 0 tb_a =      4 tb_b =     -6 tb_s = 1     -2 s_res = 0     -2

[775] WARNING: 	Expected result: 1 1110
			Obtained result: 0 1110		. Instance: tb_add_subb
Time =   776000 subb_a = 0 subb_b = 0 tb_a =      4 tb_b =     -5 tb_s = 1     -1 s_res = 0     -1

[785] WARNING: 	Expected result: 1 1111
			Obtained result: 0 1111		. Instance: tb_add_subb
Time =   786000 subb_a = 0 subb_b = 0 tb_a =      4 tb_b =     -4 tb_s = 0      0 s_res = 1      0

[795] WARNING: 	Expected result: 0 0000
			Obtained result: 1 0000		. Instance: tb_add_subb
Time =   796000 subb_a = 0 subb_b = 0 tb_a =      4 tb_b =     -3 tb_s = 0      1 s_res = 1      1

[805] WARNING: 	Expected result: 0 0001
			Obtained result: 1 0001		. Instance: tb_add_subb
Time =   806000 subb_a = 0 subb_b = 0 tb_a =      4 tb_b =     -2 tb_s = 0      2 s_res = 1      2

[815] WARNING: 	Expected result: 0 0010
			Obtained result: 1 0010		. Instance: tb_add_subb
Time =   816000 subb_a = 0 subb_b = 0 tb_a =      4 tb_b =     -1 tb_s = 0      3 s_res = 1      3

[825] WARNING: 	Expected result: 0 0011
			Obtained result: 1 0011		. Instance: tb_add_subb
Time =   826000 subb_a = 0 subb_b = 0 tb_a =      5 tb_b =      0 tb_s = 0      5 s_res = 0      5

Time =   836000 subb_a = 0 subb_b = 0 tb_a =      5 tb_b =      1 tb_s = 0      6 s_res = 0      6

Time =   846000 subb_a = 0 subb_b = 0 tb_a =      5 tb_b =      2 tb_s = 0      7 s_res = 0      7

Time =   856000 subb_a = 0 subb_b = 0 tb_a =      5 tb_b =      3 tb_s = 0     -8 s_res = 0     -8

Time =   866000 subb_a = 0 subb_b = 0 tb_a =      5 tb_b =      4 tb_s = 0     -7 s_res = 0     -7

Time =   876000 subb_a = 0 subb_b = 0 tb_a =      5 tb_b =      5 tb_s = 0     -6 s_res = 0     -6

Time =   886000 subb_a = 0 subb_b = 0 tb_a =      5 tb_b =      6 tb_s = 0     -5 s_res = 0     -5

Time =   896000 subb_a = 0 subb_b = 0 tb_a =      5 tb_b =      7 tb_s = 0     -4 s_res = 0     -4

Time =   906000 subb_a = 0 subb_b = 0 tb_a =      5 tb_b =     -8 tb_s = 1     -3 s_res = 0     -3

[915] WARNING: 	Expected result: 1 1101
			Obtained result: 0 1101		. Instance: tb_add_subb
Time =   916000 subb_a = 0 subb_b = 0 tb_a =      5 tb_b =     -7 tb_s = 1     -2 s_res = 0     -2

[925] WARNING: 	Expected result: 1 1110
			Obtained result: 0 1110		. Instance: tb_add_subb
Time =   926000 subb_a = 0 subb_b = 0 tb_a =      5 tb_b =     -6 tb_s = 1     -1 s_res = 0     -1

[935] WARNING: 	Expected result: 1 1111
			Obtained result: 0 1111		. Instance: tb_add_subb
Time =   936000 subb_a = 0 subb_b = 0 tb_a =      5 tb_b =     -5 tb_s = 0      0 s_res = 1      0

[945] WARNING: 	Expected result: 0 0000
			Obtained result: 1 0000		. Instance: tb_add_subb
Time =   946000 subb_a = 0 subb_b = 0 tb_a =      5 tb_b =     -4 tb_s = 0      1 s_res = 1      1

[955] WARNING: 	Expected result: 0 0001
			Obtained result: 1 0001		. Instance: tb_add_subb
Time =   956000 subb_a = 0 subb_b = 0 tb_a =      5 tb_b =     -3 tb_s = 0      2 s_res = 1      2

[965] WARNING: 	Expected result: 0 0010
			Obtained result: 1 0010		. Instance: tb_add_subb
Time =   966000 subb_a = 0 subb_b = 0 tb_a =      5 tb_b =     -2 tb_s = 0      3 s_res = 1      3

[975] WARNING: 	Expected result: 0 0011
			Obtained result: 1 0011		. Instance: tb_add_subb
Time =   976000 subb_a = 0 subb_b = 0 tb_a =      5 tb_b =     -1 tb_s = 0      4 s_res = 1      4

[985] WARNING: 	Expected result: 0 0100
			Obtained result: 1 0100		. Instance: tb_add_subb
Time =   986000 subb_a = 0 subb_b = 0 tb_a =      6 tb_b =      0 tb_s = 0      6 s_res = 0      6

Time =   996000 subb_a = 0 subb_b = 0 tb_a =      6 tb_b =      1 tb_s = 0      7 s_res = 0      7

Time =  1006000 subb_a = 0 subb_b = 0 tb_a =      6 tb_b =      2 tb_s = 0     -8 s_res = 0     -8

Time =  1016000 subb_a = 0 subb_b = 0 tb_a =      6 tb_b =      3 tb_s = 0     -7 s_res = 0     -7

Time =  1026000 subb_a = 0 subb_b = 0 tb_a =      6 tb_b =      4 tb_s = 0     -6 s_res = 0     -6

Time =  1036000 subb_a = 0 subb_b = 0 tb_a =      6 tb_b =      5 tb_s = 0     -5 s_res = 0     -5

Time =  1046000 subb_a = 0 subb_b = 0 tb_a =      6 tb_b =      6 tb_s = 0     -4 s_res = 0     -4

Time =  1056000 subb_a = 0 subb_b = 0 tb_a =      6 tb_b =      7 tb_s = 0     -3 s_res = 0     -3

Time =  1066000 subb_a = 0 subb_b = 0 tb_a =      6 tb_b =     -8 tb_s = 1     -2 s_res = 0     -2

[1075] WARNING: 	Expected result: 1 1110
			Obtained result: 0 1110		. Instance: tb_add_subb
Time =  1076000 subb_a = 0 subb_b = 0 tb_a =      6 tb_b =     -7 tb_s = 1     -1 s_res = 0     -1

[1085] WARNING: 	Expected result: 1 1111
			Obtained result: 0 1111		. Instance: tb_add_subb
Time =  1086000 subb_a = 0 subb_b = 0 tb_a =      6 tb_b =     -6 tb_s = 0      0 s_res = 1      0

[1095] WARNING: 	Expected result: 0 0000
			Obtained result: 1 0000		. Instance: tb_add_subb
Time =  1096000 subb_a = 0 subb_b = 0 tb_a =      6 tb_b =     -5 tb_s = 0      1 s_res = 1      1

[1105] WARNING: 	Expected result: 0 0001
			Obtained result: 1 0001		. Instance: tb_add_subb
Time =  1106000 subb_a = 0 subb_b = 0 tb_a =      6 tb_b =     -4 tb_s = 0      2 s_res = 1      2

[1115] WARNING: 	Expected result: 0 0010
			Obtained result: 1 0010		. Instance: tb_add_subb
Time =  1116000 subb_a = 0 subb_b = 0 tb_a =      6 tb_b =     -3 tb_s = 0      3 s_res = 1      3

[1125] WARNING: 	Expected result: 0 0011
			Obtained result: 1 0011		. Instance: tb_add_subb
Time =  1126000 subb_a = 0 subb_b = 0 tb_a =      6 tb_b =     -2 tb_s = 0      4 s_res = 1      4

[1135] WARNING: 	Expected result: 0 0100
			Obtained result: 1 0100		. Instance: tb_add_subb
Time =  1136000 subb_a = 0 subb_b = 0 tb_a =      6 tb_b =     -1 tb_s = 0      5 s_res = 1      5

[1145] WARNING: 	Expected result: 0 0101
			Obtained result: 1 0101		. Instance: tb_add_subb
Time =  1146000 subb_a = 0 subb_b = 0 tb_a =      7 tb_b =      0 tb_s = 0      7 s_res = 0      7

Time =  1156000 subb_a = 0 subb_b = 0 tb_a =      7 tb_b =      1 tb_s = 0     -8 s_res = 0     -8

Time =  1166000 subb_a = 0 subb_b = 0 tb_a =      7 tb_b =      2 tb_s = 0     -7 s_res = 0     -7

Time =  1176000 subb_a = 0 subb_b = 0 tb_a =      7 tb_b =      3 tb_s = 0     -6 s_res = 0     -6

Time =  1186000 subb_a = 0 subb_b = 0 tb_a =      7 tb_b =      4 tb_s = 0     -5 s_res = 0     -5

Time =  1196000 subb_a = 0 subb_b = 0 tb_a =      7 tb_b =      5 tb_s = 0     -4 s_res = 0     -4

Time =  1206000 subb_a = 0 subb_b = 0 tb_a =      7 tb_b =      6 tb_s = 0     -3 s_res = 0     -3

Time =  1216000 subb_a = 0 subb_b = 0 tb_a =      7 tb_b =      7 tb_s = 0     -2 s_res = 0     -2

Time =  1226000 subb_a = 0 subb_b = 0 tb_a =      7 tb_b =     -8 tb_s = 1     -1 s_res = 0     -1

[1235] WARNING: 	Expected result: 1 1111
			Obtained result: 0 1111		. Instance: tb_add_subb
Time =  1236000 subb_a = 0 subb_b = 0 tb_a =      7 tb_b =     -7 tb_s = 0      0 s_res = 1      0

[1245] WARNING: 	Expected result: 0 0000
			Obtained result: 1 0000		. Instance: tb_add_subb
Time =  1246000 subb_a = 0 subb_b = 0 tb_a =      7 tb_b =     -6 tb_s = 0      1 s_res = 1      1

[1255] WARNING: 	Expected result: 0 0001
			Obtained result: 1 0001		. Instance: tb_add_subb
Time =  1256000 subb_a = 0 subb_b = 0 tb_a =      7 tb_b =     -5 tb_s = 0      2 s_res = 1      2

[1265] WARNING: 	Expected result: 0 0010
			Obtained result: 1 0010		. Instance: tb_add_subb
Time =  1266000 subb_a = 0 subb_b = 0 tb_a =      7 tb_b =     -4 tb_s = 0      3 s_res = 1      3

[1275] WARNING: 	Expected result: 0 0011
			Obtained result: 1 0011		. Instance: tb_add_subb
Time =  1276000 subb_a = 0 subb_b = 0 tb_a =      7 tb_b =     -3 tb_s = 0      4 s_res = 1      4

[1285] WARNING: 	Expected result: 0 0100
			Obtained result: 1 0100		. Instance: tb_add_subb
Time =  1286000 subb_a = 0 subb_b = 0 tb_a =      7 tb_b =     -2 tb_s = 0      5 s_res = 1      5

[1295] WARNING: 	Expected result: 0 0101
			Obtained result: 1 0101		. Instance: tb_add_subb
Time =  1296000 subb_a = 0 subb_b = 0 tb_a =      7 tb_b =     -1 tb_s = 0      6 s_res = 1      6

[1305] WARNING: 	Expected result: 0 0110
			Obtained result: 1 0110		. Instance: tb_add_subb
Time =  1306000 subb_a = 0 subb_b = 0 tb_a =     -8 tb_b =      0 tb_s = 1     -8 s_res = 0     -8

[1315] WARNING: 	Expected result: 1 1000
			Obtained result: 0 1000		. Instance: tb_add_subb
Time =  1316000 subb_a = 0 subb_b = 0 tb_a =     -8 tb_b =      1 tb_s = 1     -7 s_res = 0     -7

[1325] WARNING: 	Expected result: 1 1001
			Obtained result: 0 1001		. Instance: tb_add_subb
Time =  1326000 subb_a = 0 subb_b = 0 tb_a =     -8 tb_b =      2 tb_s = 1     -6 s_res = 0     -6

[1335] WARNING: 	Expected result: 1 1010
			Obtained result: 0 1010		. Instance: tb_add_subb
Time =  1336000 subb_a = 0 subb_b = 0 tb_a =     -8 tb_b =      3 tb_s = 1     -5 s_res = 0     -5

[1345] WARNING: 	Expected result: 1 1011
			Obtained result: 0 1011		. Instance: tb_add_subb
Time =  1346000 subb_a = 0 subb_b = 0 tb_a =     -8 tb_b =      4 tb_s = 1     -4 s_res = 0     -4

[1355] WARNING: 	Expected result: 1 1100
			Obtained result: 0 1100		. Instance: tb_add_subb
Time =  1356000 subb_a = 0 subb_b = 0 tb_a =     -8 tb_b =      5 tb_s = 1     -3 s_res = 0     -3

[1365] WARNING: 	Expected result: 1 1101
			Obtained result: 0 1101		. Instance: tb_add_subb
Time =  1366000 subb_a = 0 subb_b = 0 tb_a =     -8 tb_b =      6 tb_s = 1     -2 s_res = 0     -2

[1375] WARNING: 	Expected result: 1 1110
			Obtained result: 0 1110		. Instance: tb_add_subb
Time =  1376000 subb_a = 0 subb_b = 0 tb_a =     -8 tb_b =      7 tb_s = 1     -1 s_res = 0     -1

[1385] WARNING: 	Expected result: 1 1111
			Obtained result: 0 1111		. Instance: tb_add_subb
Time =  1386000 subb_a = 0 subb_b = 0 tb_a =     -8 tb_b =     -8 tb_s = 1      0 s_res = 1      0

Time =  1396000 subb_a = 0 subb_b = 0 tb_a =     -8 tb_b =     -7 tb_s = 1      1 s_res = 1      1

Time =  1406000 subb_a = 0 subb_b = 0 tb_a =     -8 tb_b =     -6 tb_s = 1      2 s_res = 1      2

Time =  1416000 subb_a = 0 subb_b = 0 tb_a =     -8 tb_b =     -5 tb_s = 1      3 s_res = 1      3

Time =  1426000 subb_a = 0 subb_b = 0 tb_a =     -8 tb_b =     -4 tb_s = 1      4 s_res = 1      4

Time =  1436000 subb_a = 0 subb_b = 0 tb_a =     -8 tb_b =     -3 tb_s = 1      5 s_res = 1      5

Time =  1446000 subb_a = 0 subb_b = 0 tb_a =     -8 tb_b =     -2 tb_s = 1      6 s_res = 1      6

Time =  1456000 subb_a = 0 subb_b = 0 tb_a =     -8 tb_b =     -1 tb_s = 1      7 s_res = 1      7

Time =  1466000 subb_a = 0 subb_b = 0 tb_a =     -7 tb_b =      0 tb_s = 1     -7 s_res = 0     -7

[1475] WARNING: 	Expected result: 1 1001
			Obtained result: 0 1001		. Instance: tb_add_subb
Time =  1476000 subb_a = 0 subb_b = 0 tb_a =     -7 tb_b =      1 tb_s = 1     -6 s_res = 0     -6

[1485] WARNING: 	Expected result: 1 1010
			Obtained result: 0 1010		. Instance: tb_add_subb
Time =  1486000 subb_a = 0 subb_b = 0 tb_a =     -7 tb_b =      2 tb_s = 1     -5 s_res = 0     -5

[1495] WARNING: 	Expected result: 1 1011
			Obtained result: 0 1011		. Instance: tb_add_subb
Time =  1496000 subb_a = 0 subb_b = 0 tb_a =     -7 tb_b =      3 tb_s = 1     -4 s_res = 0     -4

[1505] WARNING: 	Expected result: 1 1100
			Obtained result: 0 1100		. Instance: tb_add_subb
Time =  1506000 subb_a = 0 subb_b = 0 tb_a =     -7 tb_b =      4 tb_s = 1     -3 s_res = 0     -3

[1515] WARNING: 	Expected result: 1 1101
			Obtained result: 0 1101		. Instance: tb_add_subb
Time =  1516000 subb_a = 0 subb_b = 0 tb_a =     -7 tb_b =      5 tb_s = 1     -2 s_res = 0     -2

[1525] WARNING: 	Expected result: 1 1110
			Obtained result: 0 1110		. Instance: tb_add_subb
Time =  1526000 subb_a = 0 subb_b = 0 tb_a =     -7 tb_b =      6 tb_s = 1     -1 s_res = 0     -1

[1535] WARNING: 	Expected result: 1 1111
			Obtained result: 0 1111		. Instance: tb_add_subb
Time =  1536000 subb_a = 0 subb_b = 0 tb_a =     -7 tb_b =      7 tb_s = 0      0 s_res = 1      0

[1545] WARNING: 	Expected result: 0 0000
			Obtained result: 1 0000		. Instance: tb_add_subb
Time =  1546000 subb_a = 0 subb_b = 0 tb_a =     -7 tb_b =     -8 tb_s = 1      1 s_res = 1      1

Time =  1556000 subb_a = 0 subb_b = 0 tb_a =     -7 tb_b =     -7 tb_s = 1      2 s_res = 1      2

Time =  1566000 subb_a = 0 subb_b = 0 tb_a =     -7 tb_b =     -6 tb_s = 1      3 s_res = 1      3

Time =  1576000 subb_a = 0 subb_b = 0 tb_a =     -7 tb_b =     -5 tb_s = 1      4 s_res = 1      4

Time =  1586000 subb_a = 0 subb_b = 0 tb_a =     -7 tb_b =     -4 tb_s = 1      5 s_res = 1      5

Time =  1596000 subb_a = 0 subb_b = 0 tb_a =     -7 tb_b =     -3 tb_s = 1      6 s_res = 1      6

Time =  1606000 subb_a = 0 subb_b = 0 tb_a =     -7 tb_b =     -2 tb_s = 1      7 s_res = 1      7

Time =  1616000 subb_a = 0 subb_b = 0 tb_a =     -7 tb_b =     -1 tb_s = 1     -8 s_res = 1     -8

Time =  1626000 subb_a = 0 subb_b = 0 tb_a =     -6 tb_b =      0 tb_s = 1     -6 s_res = 0     -6

[1635] WARNING: 	Expected result: 1 1010
			Obtained result: 0 1010		. Instance: tb_add_subb
Time =  1636000 subb_a = 0 subb_b = 0 tb_a =     -6 tb_b =      1 tb_s = 1     -5 s_res = 0     -5

[1645] WARNING: 	Expected result: 1 1011
			Obtained result: 0 1011		. Instance: tb_add_subb
Time =  1646000 subb_a = 0 subb_b = 0 tb_a =     -6 tb_b =      2 tb_s = 1     -4 s_res = 0     -4

[1655] WARNING: 	Expected result: 1 1100
			Obtained result: 0 1100		. Instance: tb_add_subb
Time =  1656000 subb_a = 0 subb_b = 0 tb_a =     -6 tb_b =      3 tb_s = 1     -3 s_res = 0     -3

[1665] WARNING: 	Expected result: 1 1101
			Obtained result: 0 1101		. Instance: tb_add_subb
Time =  1666000 subb_a = 0 subb_b = 0 tb_a =     -6 tb_b =      4 tb_s = 1     -2 s_res = 0     -2

[1675] WARNING: 	Expected result: 1 1110
			Obtained result: 0 1110		. Instance: tb_add_subb
Time =  1676000 subb_a = 0 subb_b = 0 tb_a =     -6 tb_b =      5 tb_s = 1     -1 s_res = 0     -1

[1685] WARNING: 	Expected result: 1 1111
			Obtained result: 0 1111		. Instance: tb_add_subb
Time =  1686000 subb_a = 0 subb_b = 0 tb_a =     -6 tb_b =      6 tb_s = 0      0 s_res = 1      0

[1695] WARNING: 	Expected result: 0 0000
			Obtained result: 1 0000		. Instance: tb_add_subb
Time =  1696000 subb_a = 0 subb_b = 0 tb_a =     -6 tb_b =      7 tb_s = 0      1 s_res = 1      1

[1705] WARNING: 	Expected result: 0 0001
			Obtained result: 1 0001		. Instance: tb_add_subb
Time =  1706000 subb_a = 0 subb_b = 0 tb_a =     -6 tb_b =     -8 tb_s = 1      2 s_res = 1      2

Time =  1716000 subb_a = 0 subb_b = 0 tb_a =     -6 tb_b =     -7 tb_s = 1      3 s_res = 1      3

Time =  1726000 subb_a = 0 subb_b = 0 tb_a =     -6 tb_b =     -6 tb_s = 1      4 s_res = 1      4

Time =  1736000 subb_a = 0 subb_b = 0 tb_a =     -6 tb_b =     -5 tb_s = 1      5 s_res = 1      5

Time =  1746000 subb_a = 0 subb_b = 0 tb_a =     -6 tb_b =     -4 tb_s = 1      6 s_res = 1      6

Time =  1756000 subb_a = 0 subb_b = 0 tb_a =     -6 tb_b =     -3 tb_s = 1      7 s_res = 1      7

Time =  1766000 subb_a = 0 subb_b = 0 tb_a =     -6 tb_b =     -2 tb_s = 1     -8 s_res = 1     -8

