digital/xfire_fpu_bkm/verification/csd_add_subb/waves/tb_csd_add_subb_basic_test.vcd
$date
	Sat Apr 16 19:49:14 2016
$end

$version
	Synopsys VCS version I-2014.03
$end

$timescale
	1ps
$end

$comment Csum: 1 3ec49c41fb4878d7 $end


$scope module bkm_fixed $end
$var wire 1 ! clk $end
$var wire 1 " arst $end
$var wire 1 # srst $end
$var wire 1 $ enable $end
$var wire 1 % start $end
$var wire 2 & format [1:0] $end
$var wire 6 ' op [5:0] $end
$var reg 64 ( x1 [63:0] $end
$var reg 64 ) y1 [63:0] $end
$var reg 64 * x2 [63:0] $end
$var reg 64 + y2 [63:0] $end
$var reg 64 , x3 [63:0] $end
$var reg 64 - y3 [63:0] $end
$var wire 4 . flags [3:0] $end
$var wire 1 / done $end
$var wire 1 0 bkm_pre_enable $end
$var wire 1 1 bkm_pre_start $end
$var wire 2 2 bkm_pre_format [1:0] $end
$var wire 6 3 bkm_pre_op [5:0] $end
$var wire 1 4 bkm_pre_done $end
$var wire 1 5 bkm_core_enable $end
$var wire 1 6 bkm_core_start $end
$var wire 2 7 bkm_core_format [1:0] $end
$var wire 1 8 bkm_core_mode $end
$var wire 1 9 bkm_core_done $end
$var wire 4 : bkm_core_flags [3:0] $end
$var wire 64 ; E_r_in [63:0] $end
$var wire 64 < E_i_in [63:0] $end
$var wire 64 = L_r_in [63:0] $end
$var wire 64 > L_i_in [63:0] $end
$var wire 64 ? E_r_out [63:0] $end
$var wire 64 @ E_i_out [63:0] $end
$var wire 64 A L_r_out [63:0] $end
$var wire 64 B L_i_out [63:0] $end
$var wire 1 C bkm_post_enable $end
$var wire 1 D bkm_post_start $end
$var wire 2 E bkm_post_format [1:0] $end
$var wire 1 F bkm_post_op $end
$var wire 1 G bkm_post_done $end
$var wire 4 H bkm_post_flags [3:0] $end

$scope module bkm_pre_processign $end
$var wire 1 ! clk $end
$var wire 1 " arst $end
$var wire 1 # srst $end
$var wire 1 0 enable $end
$var wire 1 1 start $end
$var wire 2 2 format [1:0] $end
$var wire 6 3 op [5:0] $end
$var reg 64 I x1 [63:0] $end
$var reg 64 J y1 [63:0] $end
$var reg 64 K x2 [63:0] $end
$var reg 64 L y2 [63:0] $end
$var reg 64 M x3 [63:0] $end
$var reg 64 N y3 [63:0] $end
$var reg 64 O E_r [63:0] $end
$var reg 64 P E_i [63:0] $end
$var reg 64 Q L_r [63:0] $end
$var reg 64 R L_i [63:0] $end
$var wire 1 4 done $end
$var reg 64 S dummy [63:0] $end
$upscope $end


$scope module bkm_core $end
$var wire 1 ! clk $end
$var wire 1 " arst $end
$var wire 1 # srst $end
$var wire 1 5 enable $end
$var wire 1 6 start $end
$var wire 1 8 mode $end
$var wire 2 7 format [1:0] $end
$var reg 64 T E_r_in [63:0] $end
$var reg 64 U E_i_in [63:0] $end
$var reg 64 V L_r_in [63:0] $end
$var reg 64 W L_i_in [63:0] $end
$var reg 64 X E_r_out [63:0] $end
$var reg 64 Y E_i_out [63:0] $end
$var reg 64 Z L_r_out [63:0] $end
$var reg 64 [ L_i_out [63:0] $end
$var wire 4 : flags [3:0] $end
$var wire 1 9 done $end
$var reg 64 \ dummy [63:0] $end
$upscope $end


$scope module bkm_post_processign $end
$var wire 1 ! clk $end
$var wire 1 " arst $end
$var wire 1 # srst $end
$var wire 1 C enable $end
$var wire 1 D start $end
$var wire 2 E format [1:0] $end
$var wire 6 ] op [5:0] $end
$var reg 64 ^ E_r [63:0] $end
$var reg 64 _ E_i [63:0] $end
$var reg 64 ` L_r [63:0] $end
$var reg 64 a L_i [63:0] $end
$var reg 64 b x [63:0] $end
$var reg 64 c y [63:0] $end
$var wire 4 H flags [3:0] $end
$var wire 1 G done $end
$var reg 64 d dummy [63:0] $end
$upscope $end


$scope module bkm_fixed_control_logic $end
$var reg 1 e clk $end
$var reg 1 f arst $end
$var reg 1 g srst $end
$var reg 1 h enable $end
$var reg 1 i start $end
$var reg 2 j format [1:0] $end
$var reg 6 k op [5:0] $end
$var reg 1 l bkm_pre_done $end
$var reg 1 m bkm_core_done $end
$var reg 4 n bkm_core_flags [3:0] $end
$var reg 1 o bkm_post_done $end
$var reg 4 p bkm_post_flags [3:0] $end
$var reg 1 q bkm_pre_enable $end
$var reg 1 r bkm_pre_start $end
$var reg 2 s bkm_pre_format [1:0] $end
$var reg 6 t bkm_pre_op [5:0] $end
$var reg 1 u bkm_core_enable $end
$var reg 1 v bkm_core_start $end
$var reg 2 w bkm_core_format [1:0] $end
$var reg 1 x bkm_core_mode $end
$var reg 1 y bkm_post_enable $end
$var reg 1 z bkm_post_start $end
$var reg 2 { bkm_post_format [1:0] $end
$var reg 6 | bkm_post_op [5:0] $end
$var reg 4 } flags [3:0] $end
$var reg 1 ~ done $end
$var reg 1 "! dummy $end
$upscope $end

$upscope $end


$scope module xfire_fpu_bkm $end
$var wire 1 "" clk $end
$var wire 1 "# arst $end
$var wire 1 "$ srst $end
$var wire 1 "% enable $end
$var wire 1 "& start $end
$var wire 2 "' format [1:0] $end
$var wire 6 "( op [5:0] $end
$var reg 64 ") x1 [63:0] $end
$var reg 64 "* y1 [63:0] $end
$var reg 64 "+ x2 [63:0] $end
$var reg 64 ", y2 [63:0] $end
$var reg 64 "- x3 [63:0] $end
$var reg 64 ". y3 [63:0] $end
$var wire 4 "/ flags [3:0] $end
$var wire 1 "0 done $end
$var reg 64 "1 dummy [63:0] $end
$upscope $end


$scope module fadder $end
$var wire 1 "2 a $end
$var wire 1 "3 b $end
$var wire 1 "4 ci $end
$var wire 1 "5 s $end
$var wire 1 "6 co $end
$var wire 1 "7 w1 $end
$var wire 1 "8 w2 $end
$var wire 1 "9 w3 $end
$upscope $end


$scope module simlib_clk_osc $end
$var wire 1 ": stop $end
$var wire 1 "; clk_out $end
$var reg 1 "< state $end
$var reg 1 "= osc_clk $end
$var reg 1 "> latched_osc_clk $end
$upscope $end


$scope module tb_csd_add_subb $end
$var reg 1 "? tb_subb_a $end
$var reg 1 "@ tb_subb_b $end
$var reg 8 "A tb_a [7:0] $end
$var reg 8 "B tb_b [7:0] $end
$var reg 8 "C tb_s [7:0] $end
$var wire 1 "D wire_c $end
$var wire 8 "E wire_s [7:0] $end
$var reg 1 "F sim_clk $end
$var integer 32 "G testseed $end
$var integer 32 "H errors $end
$var integer 32 "I messages $end
$var integer 32 "J warnings $end
$var integer 32 "K infos $end
$var integer 32 "L notes $end
$var integer 32 "M testseed_orig $end
$var integer 32 "N arg_int $end
$var integer 32 "O verbosity $end

$scope function constrained_rand_int $end
$var integer 32 "P constrained_rand_int $end
$var integer 32 "Q low_limit $end
$var integer 32 "R high_limit $end
$var integer 32 "S range $end
$var integer 32 "T rnd1 $end
$var integer 32 "U rnd2 $end
$var integer 32 "V rnd3 $end
$upscope $end


$scope function abs $end
$var real 64 "W abs $end
$var real 64 "X x $end
$upscope $end


$scope function clog2 $end
$var integer 32 "Y clog2 $end
$var integer 32 "Z x $end
$var integer 32 "[ i $end
$upscope $end


$scope function sin $end
$var real 64 "\ sin $end
$var real 64 "] x $end
$var real 64 "^ x1 $end
$var real 64 "_ y $end
$var real 64 "` y2 $end
$var real 64 "a y3 $end
$var real 64 "b y5 $end
$var real 64 "c y7 $end
$var real 64 "d sum $end
$var real 64 "e sign $end
$upscope $end


$scope function cos $end
$var real 64 "f cos $end
$var real 64 "g x $end
$upscope $end


$scope function csd2bs $end
$var reg 4 "h csd2bs [3:0] $end
$var reg 4 "i x [3:0] $end
$upscope $end


$scope task add_error $end
$upscope $end


$scope task add_warning $end
$upscope $end


$scope task add_info $end
$upscope $end


$scope task add_note $end
$upscope $end


$scope task test_failed $end
$upscope $end


$scope task test_passed $end
$upscope $end


$scope task finish_sim $end
$upscope $end


$scope task run_clk $end
$var integer 32 "j clk_cycles $end
$var integer 32 "k counter $end
$upscope $end


$scope task basic_test $end
$upscope $end


$scope task load_operands_test $end
$var reg 1 "l subb_a $end
$var reg 1 "m subb_b $end
$var reg 8 "n a [7:0] $end
$var reg 8 "o b [7:0] $end
$var reg 2 "p c [1:0] $end
$var reg 8 "q s [7:0] $end
$var reg 2 "r c_res [1:0] $end
$var reg 8 "s s_res [7:0] $end
$upscope $end


$scope module duv $end
$var wire 1 "t subb_a $end
$var wire 1 "u subb_b $end
$var wire 8 "v a [7:0] $end
$var wire 8 "w b [7:0] $end
$var reg 2 "x c [1:0] $end
$var reg 8 "y s [7:0] $end
$var reg 8 "z a_inv [7:0] $end
$var reg 8 "{ b_inv [7:0] $end
$var reg 4 "| a_s [3:0] $end
$var reg 4 "} a_d [3:0] $end
$var reg 4 "~ b_s [3:0] $end
$var reg 4 #! b_d [3:0] $end
$var reg 5 #" c_s [4:0] $end
$var reg 5 ## c_d [4:0] $end
$var reg 4 #$ s_s [3:0] $end
$var reg 4 #% s_d [3:0] $end
$var reg 4 #& p [3:0] $end
$upscope $end

$upscope $end


$scope module bin2csd $end
$var wire 64 #' x [63:0] $end
$var reg 128 #( y [127:0] $end
$var reg 65 #) B [64:0] $end
$var reg 64 #* sB [63:0] $end
$var reg 64 #+ cr [63:0] $end
$var reg 64 #, cl [63:0] $end
$upscope $end

$enddefinitions $end

#0
$dumpvars
z9
x5
x8
x6
zf
zm
xu
xx
xv
zo
xy
xz
zl
xq
xr
x"!
zh
zg
zi
zG
xC
xF
xD
z4
x0
x1
bxxxxxxxxxxxxxxxxxxxxxxxxxxxxxxxxxxxxxxxxxxxxxxxxxxxxxxxxxxxxxxxx P
bxxxxxxxxxxxxxxxxxxxxxxxxxxxxxxxxxxxxxxxxxxxxxxxxxxxxxxxxxxxxxxxx <
bzzzzzzzzzzzzzzzzzzzzzzzzzzzzzzzzzzzzzzzzzzzzzzzzzzzzzzzzzzzzzzzz @
bxxxxxxxxxxxxxxxxxxxxxxxxxxxxxxxxxxxxxxxxxxxxxxxxxxxxxxxxxxxxxxxx O
bxxxxxxxxxxxxxxxxxxxxxxxxxxxxxxxxxxxxxxxxxxxxxxxxxxxxxxxxxxxxxxxx ;
bzzzzzzzzzzzzzzzzzzzzzzzzzzzzzzzzzzzzzzzzzzzzzzzzzzzzzzzzzzzzzzzz ?
bxxxxxxxxxxxxxxxxxxxxxxxxxxxxxxxxxxxxxxxxxxxxxxxxxxxxxxxxxxxxxxxx R
bxxxxxxxxxxxxxxxxxxxxxxxxxxxxxxxxxxxxxxxxxxxxxxxxxxxxxxxxxxxxxxxx >
bzzzzzzzzzzzzzzzzzzzzzzzzzzzzzzzzzzzzzzzzzzzzzzzzzzzzzzzzzzzzzzzz B
bxxxxxxxxxxxxxxxxxxxxxxxxxxxxxxxxxxxxxxxxxxxxxxxxxxxxxxxxxxxxxxxx Q
bxxxxxxxxxxxxxxxxxxxxxxxxxxxxxxxxxxxxxxxxxxxxxxxxxxxxxxxxxxxxxxxx =
bzzzzzzzzzzzzzzzzzzzzzzzzzzzzzzzzzzzzzzzzzzzzzzzzzzzzzzzzzzzzzzzz A
bxxxxxxxxxxxxxxxxxxxxxxxxxxxxxxxxxxxxxxxxxxxxxxxxxxxxxxxxxxxxxxxx U
bzzzzzzzzzzzzzzzzzzzzzzzzzzzzzzzzzzzzzzzzzzzzzzzzzzzzzzzzzzzzzzzz Y
bxxxxxxxxxxxxxxxxxxxxxxxxxxxxxxxxxxxxxxxxxxxxxxxxxxxxxxxxxxxxxxxx T
bzzzzzzzzzzzzzzzzzzzzzzzzzzzzzzzzzzzzzzzzzzzzzzzzzzzzzzzzzzzzzzzz X
bxxxxxxxxxxxxxxxxxxxxxxxxxxxxxxxxxxxxxxxxxxxxxxxxxxxxxxxxxxxxxxxx W
bzzzzzzzzzzzzzzzzzzzzzzzzzzzzzzzzzzzzzzzzzzzzzzzzzzzzzzzzzzzzzzzz [
bxxxxxxxxxxxxxxxxxxxxxxxxxxxxxxxxxxxxxxxxxxxxxxxxxxxxxxxxxxxxxxxx V
bzzzzzzzzzzzzzzzzzzzzzzzzzzzzzzzzzzzzzzzzzzzzzzzzzzzzzzzzzzzzzzzz Z
bxxxxxxxxxxxxxxxxxxxxxxxxxxxxxxxxxxxxxxxxxxxxxxxxxxxxxxxxxxxxxxxx \
bzzzz :
bxx 7
bzzzz n
bxx w
bzzzz p
bxx {
bxxxxxx |
bxx s
bxxxxxx t
bxxxx }
bzz j
bzzzzzz k
bzzzz H
bxx E
bzzzzzzzzzzzzzzzzzzzzzzzzzzzzzzzzzzzzzzzzzzzzzzzzzzzzzzzzzzzzzzzz _
bzzzzzzzzzzzzzzzzzzzzzzzzzzzzzzzzzzzzzzzzzzzzzzzzzzzzzzzzzzzzzzzz ^
bzzzzzzzzzzzzzzzzzzzzzzzzzzzzzzzzzzzzzzzzzzzzzzzzzzzzzzzzzzzzzzzz a
bzzzzzzzzzzzzzzzzzzzzzzzzzzzzzzzzzzzzzzzzzzzzzzzzzzzzzzzzzzzzzzzz `
bxxxxxxxxxxxxxxxxxxxxxxxxxxxxxxxxxxxxxxxxxxxxxxxxxxxxxxxxxxxxxxxx d
b00000x ]
bxx 2
bxxxxxx 3
bxxxxxxxxxxxxxxxxxxxxxxxxxxxxxxxxxxxxxxxxxxxxxxxxxxxxxxxxxxxxxxxx I
bxxxxxxxxxxxxxxxxxxxxxxxxxxxxxxxxxxxxxxxxxxxxxxxxxxxxxxxxxxxxxxxx K
bxxxxxxxxxxxxxxxxxxxxxxxxxxxxxxxxxxxxxxxxxxxxxxxxxxxxxxxxxxxxxxxx M
bxxxxxxxxxxxxxxxxxxxxxxxxxxxxxxxxxxxxxxxxxxxxxxxxxxxxxxxxxxxxxxxx J
bxxxxxxxxxxxxxxxxxxxxxxxxxxxxxxxxxxxxxxxxxxxxxxxxxxxxxxxxxxxxxxxx L
bxxxxxxxxxxxxxxxxxxxxxxxxxxxxxxxxxxxxxxxxxxxxxxxxxxxxxxxxxxxxxxxx N
bxxxxxxxxxxxxxxxxxxxxxxxxxxxxxxxxxxxxxxxxxxxxxxxxxxxxxxxxxxxxxxxx S
bxxxxxxxxxxxxxxxxxxxxxxxxxxxxxxxxxxxxxxxxxxxxxxxxxxxxxxxxxxxxxxxx b
bxxxxxxxxxxxxxxxxxxxxxxxxxxxxxxxxxxxxxxxxxxxxxxxxxxxxxxxxxxxxxxxx (
bxxxxxxxxxxxxxxxxxxxxxxxxxxxxxxxxxxxxxxxxxxxxxxxxxxxxxxxxxxxxxxxx *
bxxxxxxxxxxxxxxxxxxxxxxxxxxxxxxxxxxxxxxxxxxxxxxxxxxxxxxxxxxxxxxxx ,
bxxxxxxxxxxxxxxxxxxxxxxxxxxxxxxxxxxxxxxxxxxxxxxxxxxxxxxxxxxxxxxxx c
bxxxxxxxxxxxxxxxxxxxxxxxxxxxxxxxxxxxxxxxxxxxxxxxxxxxxxxxxxxxxxxxx )
bxxxxxxxxxxxxxxxxxxxxxxxxxxxxxxxxxxxxxxxxxxxxxxxxxxxxxxxxxxxxxxxx +
bxxxxxxxxxxxxxxxxxxxxxxxxxxxxxxxxxxxxxxxxxxxxxxxxxxxxxxxxxxxxxxxx -
bxxxxxxxxxxxxxxxxxxxxxxxxxxxxxxxxxxxxxxxxxxxxxxxxxxxxxxxxxxxxxxxx "1
bxxxxxxxxxxxxxxxxxxxxxxxxxxxxxxxxxxxxxxxxxxxxxxxxxxxxxxxxxxxxxxxx ")
bxxxxxxxxxxxxxxxxxxxxxxxxxxxxxxxxxxxxxxxxxxxxxxxxxxxxxxxxxxxxxxxx "+
bxxxxxxxxxxxxxxxxxxxxxxxxxxxxxxxxxxxxxxxxxxxxxxxxxxxxxxxxxxxxxxxx "-
bxxxxxxxxxxxxxxxxxxxxxxxxxxxxxxxxxxxxxxxxxxxxxxxxxxxxxxxxxxxxxxxx "*
bxxxxxxxxxxxxxxxxxxxxxxxxxxxxxxxxxxxxxxxxxxxxxxxxxxxxxxxxxxxxxxxx ",
bxxxxxxxxxxxxxxxxxxxxxxxxxxxxxxxxxxxxxxxxxxxxxxxxxxxxxxxxxxxxxxxx ".
x"7
x"8
x"9
z">
0"=
x"<
0"t
0"u
0"l
0"m
0"F
0"?
0"@
0"D
b0000 "}
b00000000 "z
b0000 "|
b00000000000000000000000000000000 "N
b0000 #!
b00000000 "{
b0000 "~
b00001 ##
b11110 #"
bxxxxxxxxxxxxxxxxxxxxxxxxxxxxxxxx "Y
bxxxxxxxxxxxxxxxxxxxxxxxxxxxxxxxx "[
bxxxxxxxxxxxxxxxxxxxxxxxxxxxxxxxx "Z
bxxxxxxxxxxxxxxxxxxxxxxxxxxxxxxxx "P
bxxxxxxxxxxxxxxxxxxxxxxxxxxxxxxxx "R
bxxxxxxxxxxxxxxxxxxxxxxxxxxxxxxxx "Q
bxxxxxxxxxxxxxxxxxxxxxxxxxxxxxxxx "S
bxxxxxxxxxxxxxxxxxxxxxxxxxxxxxxxx "T
bxxxxxxxxxxxxxxxxxxxxxxxxxxxxxxxx "U
bxxxxxxxxxxxxxxxxxxxxxxxxxxxxxxxx "V
b0000 "h
b0000 "i
b00000000 "v
b00000000 "w
b00 "x
b00000011 "y
b00000000000000000000000000000000 "H
b00000000000000000000000000000000 "K
b00000000 "n
b00000000 "o
b00 "p
bxx "r
b00000000 "q
bxxxxxxxx "s
b00000000000000000000000000000000 "I
b00000000000000000000000000000000 "L
b0000 #&
bxxxxxxxxxxxxxxxxxxxxxxxxxxxxxxxx "j
bxxxxxxxxxxxxxxxxxxxxxxxxxxxxxxxx "k
b0001 #%
b1110 #$
b00000000 "A
b00000000 "B
b00000000 "C
b00111011110000111110101001100111 "G
b00111011110000111110101001100111 "M
b00000000000000000000000000000000 "O
b00000000000000000000000000000000 "J
b00000011 "E
r0.000000000000000  "W
r0.000000000000000  "X
r0.000000000000000  "f
r0.000000000000000  "g
r0.000000000000000  "e
r0.000000000000000  "\
r0.000000000000000  "d
r0.000000000000000  "]
r0.000000000000000  "^
r0.000000000000000  "_
r0.000000000000000  "`
r0.000000000000000  "a
r0.000000000000000  "b
r0.000000000000000  "c
bxxxxxxxxxxxxxxxxxxxxxxxxxxxxxxxxxxxxxxxxxxxxxxxxxxxxxxxxxxxxxxxx0 #)
bxxxxxxxxxxxxxxxxxxxxxxxxxxxxxxxxxxxxxxxxxxxxxxxxxxxxxxxxxxxxxxxx #,
bxxxxxxxxxxxxxxxxxxxxxxxxxxxxxxxxxxxxxxxxxxxxxxxxxxxxxxxxxxxxxxxx #+
bxxxxxxxxxxxxxxxxxxxxxxxxxxxxxxxxxxxxxxxxxxxxxxxxxxxxxxxxxxxxxxxx #*
bxxxxxxxxxxxxxxxxxxxxxxxxxxxxxxxxxxxxxxxxxxxxxxxxxxxxxxxxxxxxxxxxxxxxxxxxxxxxxxxxxxxxxxxxxxxxxxxxxxxxxxxxxxxxxxxxxxxxxxxxxxxxxxxx #(
x"5
x"6
0";
ze
x~
z!
z"
z#
z$
z%
bzz &
bzzzzzz '
bxxxx .
x/
z""
z"#
z"$
z"%
z"&
bzz "'
bzzzzzz "(
bzzzz "/
z"0
z"2
z"3
z"4
z":
bzzzzzzzzzzzzzzzzzzzzzzzzzzzzzzzzzzzzzzzzzzzzzzzzzzzzzzzzzzzzzzzz #'
$end
#1000
b00 "r
b00000000 "s
b0001 "i
b0001 "h
b0000 "i
b0000 "h
b0001 "i
b0001 "h
b00000001 "o
b00000001 "q
b00000001 "B
b00000001 "w
b00000001 "C
b00000001 "y
b00000001 "E
b1111 #$
b0001 #!
b00000001 "{
#2000
b00000001 "s
b0000 "i
b0000 "h
b1111 "i
b0010 "h
b0000 "i
b0000 "h
b1111 "i
b0010 "h
b00000010 "o
b00000010 "q
b00000010 "B
b00000010 "w
b00000010 "C
b0001 #&
b11100 #"
b0000 #!
b0001 "~
b00000010 "{
b00001001 "y
b00001001 "E
b1101 #$
b00000 ##
b11101 #"
b00001010 "y
b00001010 "E
b0000 #%
b1100 #$
b00010 ##
b00001110 "y
b00001110 "E
b0010 #%
#3000
b00001110 "s
b00000000000000000000000000000001 "H
b00000000000000000000000000000001 "I
b0000 "i
b0000 "h
b00000000 "o
b00000000 "q
b00000000 "B
b00000000 "w
b00000000 "C
b00001100 "y
b00001100 "E
b1101 #$
b00000 ##
b0000 #&
b11111 #"
b0000 "~
b00000000 "{
b00000000 "y
b00000000 "E
b0000 #%
b1111 #$
b00001 ##
b11110 #"
b00000011 "y
b00000011 "E
b0001 #%
b1110 #$
#4000
b00000000 "s
b0001 "i
b0001 "h
b0000 "i
b0000 "h
b0001 "i
b0001 "h
b00000001 "n
b00000001 "q
b00000001 "A
b00000001 "v
b00000001 "C
b00000001 "y
b00000001 "E
b1111 #$
b0001 #&
b0001 "}
b00000001 "z
#5000
1"F
b00000001 "s
b0000 "i
b0000 "h
b00000001 "o
b01 "p
b00000000 "q
b00000001 "B
b00000001 "w
b00000000 "C
b00000011 "y
b00000011 "E
b1110 #$
b00011 ##
b0001 #!
b00000001 "{
b00000111 "y
b00000111 "E
b0011 #%
#6000
b00000111 "s
b00000000000000000000000000000010 "H
b00000000000000000000000000000010 "I
b0001 "i
b0001 "h
b1111 "i
b0010 "h
b0000 "i
b0000 "h
b00000010 "o
b00 "p
b00000010 "B
b00000010 "w
b00001 ##
b0000 #&
b0000 #!
b0001 "~
b00000010 "{
b00000011 "y
b00000011 "E
b0001 #%
#7000
b00000000 "s
b0001 "i
b0001 "h
b0000 "i
b0000 "h
b0001 "i
b0001 "h
b00000000 "o
b00000001 "q
b00000000 "B
b00000000 "w
b00000001 "C
b00000001 "y
b00000001 "E
b1111 #$
b0001 #&
b0000 "~
b00000000 "{
#8000
b00000001 "s
b1111 "i
b0010 "h
b0000 "i
b0000 "h
b1111 "i
b0010 "h
b00000010 "n
b00000010 "q
b00000010 "A
b00000010 "v
b00000010 "C
b11100 #"
b0000 "}
b0001 "|
b00000010 "z
b00001001 "y
b00001001 "E
b1101 #$
b00000 ##
b11101 #"
b00001010 "y
b00001010 "E
b0000 #%
b1100 #$
b00010 ##
b00001110 "y
b00001110 "E
b0010 #%
#9000
b00001110 "s
b00000000000000000000000000000011 "H
b00000000000000000000000000000011 "I
b0001 "i
b0001 "h
b0000 "i
b0000 "h
b00000001 "o
b00000000 "q
b00000001 "B
b00000001 "w
b00000000 "C
b00001100 "y
b00001100 "E
b1101 #$
b0001 #!
b00000001 "{
b00011 ##
b11100 #"
b00001111 "y
b00001111 "E
b0011 #%
b1100 #$
#10000
0"F
b00001111 "s
b00000000000000000000000000000100 "H
b00000000000000000000000000000100 "I
b1111 "i
b0010 "h
b0000 "i
b0000 "h
b00000010 "o
b10 "p
b00000010 "B
b00000010 "w
b00001 ##
b0000 #&
b0000 #!
b0001 "~
b00000010 "{
b00001011 "y
b00001011 "E
b0001 #%
#11000
b00001011 "s
b00000000000000000000000000000101 "H
b00000000000000000000000000000101 "I
b1111 "i
b0010 "h
b0000 "i
b0000 "h
b1111 "i
b0010 "h
b00000000 "o
b00 "p
b00000010 "q
b00000000 "B
b00000000 "w
b00000010 "C
b00001001 "y
b00001001 "E
b1101 #$
b0001 #&
b0000 "~
b00000000 "{
b00000 ##
b11101 #"
b00001010 "y
b00001010 "E
b0000 #%
b1100 #$
b00010 ##
b00001110 "y
b00001110 "E
b0010 #%
#12000
b00001110 "s
b00000000000000000000000000000110 "H
b00000000000000000000000000000110 "I
b0000 "i
b0000 "h
b00000000 "n
b00000000 "q
b00000000 "A
b00000000 "v
b00000000 "C
b00001100 "y
b00001100 "E
b1101 #$
b00000 ##
b0000 #&
b11111 #"
b0000 "|
b00000000 "z
b00000000 "y
b00000000 "E
b0000 #%
b1111 #$
b00001 ##
b11110 #"
b00000011 "y
b00000011 "E
b0001 #%
b1110 #$
#13000
b00000000 "s
b0001 "i
b0001 "h
b0000 "i
b0000 "h
b0001 "i
b0001 "h
b00000001 "o
b00000001 "q
b00000001 "B
b00000001 "w
b00000001 "C
b00000001 "y
b00000001 "E
b1111 #$
b0001 #!
b00000001 "{
#14000
b00000001 "s
b0000 "i
b0000 "h
b1111 "i
b0010 "h
b0000 "i
b0000 "h
b1111 "i
b0010 "h
b00000010 "o
b00000010 "q
b00000010 "B
b00000010 "w
b00000010 "C
b0001 #&
b11100 #"
b0000 #!
b0001 "~
b00000010 "{
b00001001 "y
b00001001 "E
b1101 #$
b00000 ##
b11101 #"
b00001010 "y
b00001010 "E
b0000 #%
b1100 #$
b00010 ##
b00001110 "y
b00001110 "E
b0010 #%
#15000
1"F
b00001110 "s
b00000000000000000000000000000111 "H
b00000000000000000000000000000111 "I
b0000 "i
b0000 "h
b00000000 "o
b00000000 "q
b00000000 "B
b00000000 "w
b00000000 "C
b00001100 "y
b00001100 "E
b1101 #$
b00000 ##
b0000 #&
b11111 #"
b0000 "~
b00000000 "{
b00000000 "y
b00000000 "E
b0000 #%
b1111 #$
b00001 ##
b11110 #"
b00000011 "y
b00000011 "E
b0001 #%
b1110 #$
#16000
b00000000 "s
#17000
b00000001 "o
b00000001 "q
b00000001 "B
b00000001 "w
b00000001 "C
b00000001 "y
b00000001 "E
b1111 #$
b0001 #!
b00000001 "{
#18000
b00000001 "s
b00000010 "o
b00000010 "q
b00000010 "B
b00000010 "w
b00000010 "C
b0001 #&
b11100 #"
b0000 #!
b0001 "~
b00000010 "{
b00001001 "y
b00001001 "E
b1101 #$
b00000 ##
b11101 #"
b00001010 "y
b00001010 "E
b0000 #%
b1100 #$
b00010 ##
b00001110 "y
b00001110 "E
b0010 #%
#19000
b00001110 "s
b00000000000000000000000000001000 "H
b00000000000000000000000000001000 "I
b00000011 "o
b00000000 "q
b00000011 "B
b00000011 "w
b00000000 "C
b00001100 "y
b00001100 "E
b1101 #$
b0001 #!
b00000011 "{
b00011 ##
b11100 #"
b00001111 "y
b00001111 "E
b0011 #%
b1100 #$
#20000
0"F
b00001111 "s
b00000000000000000000000000001001 "H
b00000000000000000000000000001001 "I
b00000001 "n
b00000000 "o
b00000001 "q
b00000001 "A
b00000001 "v
b00000000 "B
b00000000 "w
b00000001 "C
b00001101 "y
b00001101 "E
b1101 #$
b00001 ##
b11110 #"
b0000 #!
b0000 "~
b0001 "}
b00000000 "{
b00000001 "z
b00000001 "y
b00000001 "E
b0001 #%
b1111 #$
#21000
b00000001 "s
b00000001 "o
b01 "p
b00000000 "q
b00000001 "B
b00000001 "w
b00000000 "C
b00000011 "y
b00000011 "E
b1110 #$
b00011 ##
b0001 #!
b00000001 "{
b00000111 "y
b00000111 "E
b0011 #%
#22000
b00000111 "s
b00000000000000000000000000001010 "H
b00000000000000000000000000001010 "I
b00000010 "o
b00 "p
b00000010 "B
b00000010 "w
b00001 ##
b0000 #&
b0000 #!
b0001 "~
b00000010 "{
b00000011 "y
b00000011 "E
b0001 #%
#23000
b00000000 "s
b00000011 "o
b00000001 "q
b00000011 "B
b00000011 "w
b00000001 "C
b00000001 "y
b00000001 "E
b1111 #$
b0001 #!
b00000011 "{
#24000
b00000001 "s
b00000010 "n
b00000000 "o
b00000010 "q
b00000010 "A
b00000010 "v
b00000000 "B
b00000000 "w
b00000010 "C
b0001 #&
b11100 #"
b0000 #!
b0000 "~
b0000 "}
b0001 "|
b00000000 "{
b00000010 "z
b00001001 "y
b00001001 "E
b1101 #$
b00000 ##
b11101 #"
b00001010 "y
b00001010 "E
b0000 #%
b1100 #$
b00010 ##
b00001110 "y
b00001110 "E
b0010 #%
#25000
1"F
b00001110 "s
b00000000000000000000000000001011 "H
b00000000000000000000000000001011 "I
b00000001 "o
b00000000 "q
b00000001 "B
b00000001 "w
b00000000 "C
b00001100 "y
b00001100 "E
b1101 #$
b0001 #!
b00000001 "{
b00011 ##
b11100 #"
b00001111 "y
b00001111 "E
b0011 #%
b1100 #$
#26000
b00001111 "s
b00000000000000000000000000001100 "H
b00000000000000000000000000001100 "I
b00000010 "o
b10 "p
b00000010 "B
b00000010 "w
b00001 ##
b0000 #&
b0000 #!
b0001 "~
b00000010 "{
b00001011 "y
b00001011 "E
b0001 #%
#27000
b00001011 "s
b00000000000000000000000000001101 "H
b00000000000000000000000000001101 "I
b00000011 "o
b00 "p
b00000010 "q
b00000011 "B
b00000011 "w
b00000010 "C
b00001001 "y
b00001001 "E
b1101 #$
b0001 #!
b00000011 "{
b00000 ##
b11101 #"
b00001010 "y
b00001010 "E
b0000 #%
b1100 #$
b00010 ##
b00001110 "y
b00001110 "E
b0010 #%
#28000
b00001110 "s
b00000000000000000000000000001110 "H
b00000000000000000000000000001110 "I
b00000011 "n
b00000000 "o
b00000000 "q
b00000011 "A
b00000011 "v
b00000000 "B
b00000000 "w
b00000000 "C
b00001100 "y
b00001100 "E
b1101 #$
b00000 ##
b11111 #"
b0000 #!
b0000 "~
b0001 "}
b00000000 "{
b00000011 "z
b00000000 "y
b00000000 "E
b0000 #%
b1111 #$
b00001 ##
b11110 #"
b00000011 "y
b00000011 "E
b0001 #%
b1110 #$
#29000
b00000000 "s
b00000001 "o
b00000001 "q
b00000001 "B
b00000001 "w
b00000001 "C
b00000001 "y
b00000001 "E
b1111 #$
b0001 #!
b00000001 "{
#30000
0"F
b00000001 "s
b00000010 "o
b00000010 "q
b00000010 "B
b00000010 "w
b00000010 "C
b0001 #&
b11100 #"
b0000 #!
b0001 "~
b00000010 "{
b00001001 "y
b00001001 "E
b1101 #$
b00000 ##
b11101 #"
b00001010 "y
b00001010 "E
b0000 #%
b1100 #$
b00010 ##
b00001110 "y
b00001110 "E
b0010 #%
#31000
b00001110 "s
b00000000000000000000000000001111 "H
b00000000000000000000000000001111 "I
b00000011 "o
b00000000 "q
b00000011 "B
b00000011 "w
b00000000 "C
b00001100 "y
b00001100 "E
b1101 #$
b0001 #!
b00000011 "{
b00011 ##
b11100 #"
b00001111 "y
b00001111 "E
b0011 #%
b1100 #$
