digital/xfire_fpu_bkm/verification/csd_add_subb/waves/tb_csd_add_subb_bin2csd2bin_test.vcd
$date
	Tue Apr 19 00:13:17 2016
$end

$version
	Synopsys VCS version I-2014.03
$end

$timescale
	1ps
$end

$comment Csum: 1 7a0d6aeaea528ac1 $end


$scope module bkm_fixed $end
$var wire 1 ! clk $end
$var wire 1 " arst $end
$var wire 1 # srst $end
$var wire 1 $ enable $end
$var wire 1 % start $end
$var wire 2 & format [1:0] $end
$var wire 6 ' op [5:0] $end
$var reg 64 ( x1 [63:0] $end
$var reg 64 ) y1 [63:0] $end
$var reg 64 * x2 [63:0] $end
$var reg 64 + y2 [63:0] $end
$var reg 64 , x3 [63:0] $end
$var reg 64 - y3 [63:0] $end
$var wire 4 . flags [3:0] $end
$var wire 1 / done $end
$var wire 1 0 bkm_pre_enable $end
$var wire 1 1 bkm_pre_start $end
$var wire 2 2 bkm_pre_format [1:0] $end
$var wire 6 3 bkm_pre_op [5:0] $end
$var wire 1 4 bkm_pre_done $end
$var wire 1 5 bkm_core_enable $end
$var wire 1 6 bkm_core_start $end
$var wire 2 7 bkm_core_format [1:0] $end
$var wire 1 8 bkm_core_mode $end
$var wire 1 9 bkm_core_done $end
$var wire 4 : bkm_core_flags [3:0] $end
$var wire 64 ; E_r_in [63:0] $end
$var wire 64 < E_i_in [63:0] $end
$var wire 64 = L_r_in [63:0] $end
$var wire 64 > L_i_in [63:0] $end
$var wire 64 ? E_r_out [63:0] $end
$var wire 64 @ E_i_out [63:0] $end
$var wire 64 A L_r_out [63:0] $end
$var wire 64 B L_i_out [63:0] $end
$var wire 1 C bkm_post_enable $end
$var wire 1 D bkm_post_start $end
$var wire 2 E bkm_post_format [1:0] $end
$var wire 1 F bkm_post_op $end
$var wire 1 G bkm_post_done $end
$var wire 4 H bkm_post_flags [3:0] $end

$scope module bkm_pre_processign $end
$var wire 1 ! clk $end
$var wire 1 " arst $end
$var wire 1 # srst $end
$var wire 1 0 enable $end
$var wire 1 1 start $end
$var wire 2 2 format [1:0] $end
$var wire 6 3 op [5:0] $end
$var reg 64 I x1 [63:0] $end
$var reg 64 J y1 [63:0] $end
$var reg 64 K x2 [63:0] $end
$var reg 64 L y2 [63:0] $end
$var reg 64 M x3 [63:0] $end
$var reg 64 N y3 [63:0] $end
$var reg 64 O E_r [63:0] $end
$var reg 64 P E_i [63:0] $end
$var reg 64 Q L_r [63:0] $end
$var reg 64 R L_i [63:0] $end
$var wire 1 4 done $end
$var reg 64 S dummy [63:0] $end
$upscope $end


$scope module bkm_core $end
$var wire 1 ! clk $end
$var wire 1 " arst $end
$var wire 1 # srst $end
$var wire 1 5 enable $end
$var wire 1 6 start $end
$var wire 1 8 mode $end
$var wire 2 7 format [1:0] $end
$var reg 64 T E_r_in [63:0] $end
$var reg 64 U E_i_in [63:0] $end
$var reg 64 V L_r_in [63:0] $end
$var reg 64 W L_i_in [63:0] $end
$var reg 64 X E_r_out [63:0] $end
$var reg 64 Y E_i_out [63:0] $end
$var reg 64 Z L_r_out [63:0] $end
$var reg 64 [ L_i_out [63:0] $end
$var wire 4 : flags [3:0] $end
$var wire 1 9 done $end
$var reg 64 \ dummy [63:0] $end
$upscope $end


$scope module bkm_post_processign $end
$var wire 1 ! clk $end
$var wire 1 " arst $end
$var wire 1 # srst $end
$var wire 1 C enable $end
$var wire 1 D start $end
$var wire 2 E format [1:0] $end
$var wire 6 ] op [5:0] $end
$var reg 64 ^ E_r [63:0] $end
$var reg 64 _ E_i [63:0] $end
$var reg 64 ` L_r [63:0] $end
$var reg 64 a L_i [63:0] $end
$var reg 64 b x [63:0] $end
$var reg 64 c y [63:0] $end
$var wire 4 H flags [3:0] $end
$var wire 1 G done $end
$var reg 64 d dummy [63:0] $end
$upscope $end


$scope module bkm_fixed_control_logic $end
$var reg 1 e clk $end
$var reg 1 f arst $end
$var reg 1 g srst $end
$var reg 1 h enable $end
$var reg 1 i start $end
$var reg 2 j format [1:0] $end
$var reg 6 k op [5:0] $end
$var reg 1 l bkm_pre_done $end
$var reg 1 m bkm_core_done $end
$var reg 4 n bkm_core_flags [3:0] $end
$var reg 1 o bkm_post_done $end
$var reg 4 p bkm_post_flags [3:0] $end
$var reg 1 q bkm_pre_enable $end
$var reg 1 r bkm_pre_start $end
$var reg 2 s bkm_pre_format [1:0] $end
$var reg 6 t bkm_pre_op [5:0] $end
$var reg 1 u bkm_core_enable $end
$var reg 1 v bkm_core_start $end
$var reg 2 w bkm_core_format [1:0] $end
$var reg 1 x bkm_core_mode $end
$var reg 1 y bkm_post_enable $end
$var reg 1 z bkm_post_start $end
$var reg 2 { bkm_post_format [1:0] $end
$var reg 6 | bkm_post_op [5:0] $end
$var reg 4 } flags [3:0] $end
$var reg 1 ~ done $end
$var reg 1 "! dummy $end
$upscope $end

$upscope $end


$scope module xfire_fpu_bkm $end
$var wire 1 "" clk $end
$var wire 1 "# arst $end
$var wire 1 "$ srst $end
$var wire 1 "% enable $end
$var wire 1 "& start $end
$var wire 2 "' format [1:0] $end
$var wire 6 "( op [5:0] $end
$var reg 64 ") x1 [63:0] $end
$var reg 64 "* y1 [63:0] $end
$var reg 64 "+ x2 [63:0] $end
$var reg 64 ", y2 [63:0] $end
$var reg 64 "- x3 [63:0] $end
$var reg 64 ". y3 [63:0] $end
$var wire 4 "/ flags [3:0] $end
$var wire 1 "0 done $end
$var reg 64 "1 dummy [63:0] $end
$upscope $end


$scope module fadder $end
$var wire 1 "2 a $end
$var wire 1 "3 b $end
$var wire 1 "4 ci $end
$var wire 1 "5 s $end
$var wire 1 "6 co $end
$var wire 1 "7 w1 $end
$var wire 1 "8 w2 $end
$var wire 1 "9 w3 $end
$upscope $end


$scope module simlib_clk_osc $end
$var wire 1 ": stop $end
$var wire 1 "; clk_out $end
$var reg 1 "< state $end
$var reg 1 "= osc_clk $end
$var reg 1 "> latched_osc_clk $end
$upscope $end


$scope module tb_csd_add_subb $end
$var reg 1 "? tb_subb_x $end
$var reg 1 "@ tb_subb_y $end
$var reg 4 "A tb_x_bin [3:0] $end
$var reg 4 "B tb_y_bin [3:0] $end
$var reg 4 "C tb_z_bin [3:0] $end
$var wire 1 "D c_bin $end
$var wire 4 "E z_bin [3:0] $end
$var wire 8 "F x_csd [7:0] $end
$var wire 8 "G y_csd [7:0] $end
$var wire 2 "H c_csd [1:0] $end
$var wire 8 "I z_csd [7:0] $end
$var reg 1 "J sim_clk $end
$var integer 32 "K testseed $end
$var integer 32 "L errors $end
$var integer 32 "M messages $end
$var integer 32 "N warnings $end
$var integer 32 "O infos $end
$var integer 32 "P notes $end
$var integer 32 "Q testseed_orig $end
$var integer 32 "R arg_int $end
$var integer 32 "S verbosity $end

$scope function constrained_rand_int $end
$var integer 32 "T constrained_rand_int $end
$var integer 32 "U low_limit $end
$var integer 32 "V high_limit $end
$var integer 32 "W range $end
$var integer 32 "X rnd1 $end
$var integer 32 "Y rnd2 $end
$var integer 32 "Z rnd3 $end
$upscope $end


$scope function abs $end
$var real 64 "[ abs $end
$var real 64 "\ x $end
$upscope $end


$scope function clog2 $end
$var integer 32 "] clog2 $end
$var integer 32 "^ x $end
$var integer 32 "_ i $end
$upscope $end


$scope function sin $end
$var real 64 "` sin $end
$var real 64 "a x $end
$var real 64 "b x1 $end
$var real 64 "c y $end
$var real 64 "d y2 $end
$var real 64 "e y3 $end
$var real 64 "f y5 $end
$var real 64 "g y7 $end
$var real 64 "h sum $end
$var real 64 "i sign $end
$upscope $end


$scope function cos $end
$var real 64 "j cos $end
$var real 64 "k x $end
$upscope $end


$scope task add_error $end
$upscope $end


$scope task add_warning $end
$upscope $end


$scope task add_info $end
$upscope $end


$scope task add_note $end
$upscope $end


$scope task test_failed $end
$upscope $end


$scope task test_passed $end
$upscope $end


$scope task finish_sim $end
$upscope $end


$scope task run_clk $end
$var integer 32 "l clk_cycles $end
$var integer 32 "m counter $end
$upscope $end


$scope task bin2csd2bin_test $end
$upscope $end


$scope task load_operands $end
$var reg 1 "n subb_x $end
$var reg 1 "o subb_y $end
$var reg 4 "p x [3:0] $end
$var reg 4 "q y [3:0] $end
$var reg 1 "r c $end
$var reg 4 "s z [3:0] $end
$var reg 1 "t c_res $end
$var reg 4 "u z_res [3:0] $end
$upscope $end


$scope module bin2csd_x $end
$var wire 4 "v x [3:0] $end
$var reg 8 "w y [7:0] $end
$var reg 4 "x h [3:0] $end
$var reg 4 "y k [3:0] $end
$var reg 4 "z y_s [3:0] $end
$var reg 4 "{ y_d [3:0] $end
$upscope $end


$scope module bin2csd_y $end
$var wire 4 "| x [3:0] $end
$var reg 8 "} y [7:0] $end
$var reg 4 "~ h [3:0] $end
$var reg 4 #! k [3:0] $end
$var reg 4 #" y_s [3:0] $end
$var reg 4 ## y_d [3:0] $end
$upscope $end


$scope module csd2bin_z $end
$var wire 10 #$ x [9:0] $end
$var reg 5 #% y [4:0] $end
$var reg 6 #& c [5:0] $end
$var reg 5 #' x_s [4:0] $end
$var reg 5 #( x_d [4:0] $end
$upscope $end


$scope module duv $end
$var wire 1 #) subb_a $end
$var wire 1 #* subb_b $end
$var wire 8 "F a [7:0] $end
$var wire 8 "G b [7:0] $end
$var reg 2 #+ c [1:0] $end
$var reg 8 #, s [7:0] $end
$var reg 8 #- a_inv [7:0] $end
$var reg 8 #. b_inv [7:0] $end
$var reg 4 #/ a_s [3:0] $end
$var reg 4 #0 a_d [3:0] $end
$var reg 4 #1 b_s [3:0] $end
$var reg 4 #2 b_d [3:0] $end
$var reg 5 #3 c_s [4:0] $end
$var reg 5 #4 c_d [4:0] $end
$var reg 4 #5 s_s [3:0] $end
$var reg 4 #6 s_d [3:0] $end
$var reg 4 #7 p [3:0] $end
$upscope $end

$upscope $end

$enddefinitions $end

#0
$dumpvars
z9
x5
x8
x6
zf
zm
xu
xx
xv
zo
xy
xz
zl
xq
xr
x"!
zh
zg
zi
zG
xC
xF
xD
z4
x0
x1
bxxxxxxxxxxxxxxxxxxxxxxxxxxxxxxxxxxxxxxxxxxxxxxxxxxxxxxxxxxxxxxxx P
bxxxxxxxxxxxxxxxxxxxxxxxxxxxxxxxxxxxxxxxxxxxxxxxxxxxxxxxxxxxxxxxx <
bzzzzzzzzzzzzzzzzzzzzzzzzzzzzzzzzzzzzzzzzzzzzzzzzzzzzzzzzzzzzzzzz @
bxxxxxxxxxxxxxxxxxxxxxxxxxxxxxxxxxxxxxxxxxxxxxxxxxxxxxxxxxxxxxxxx O
bxxxxxxxxxxxxxxxxxxxxxxxxxxxxxxxxxxxxxxxxxxxxxxxxxxxxxxxxxxxxxxxx ;
bzzzzzzzzzzzzzzzzzzzzzzzzzzzzzzzzzzzzzzzzzzzzzzzzzzzzzzzzzzzzzzzz ?
bxxxxxxxxxxxxxxxxxxxxxxxxxxxxxxxxxxxxxxxxxxxxxxxxxxxxxxxxxxxxxxxx R
bxxxxxxxxxxxxxxxxxxxxxxxxxxxxxxxxxxxxxxxxxxxxxxxxxxxxxxxxxxxxxxxx >
bzzzzzzzzzzzzzzzzzzzzzzzzzzzzzzzzzzzzzzzzzzzzzzzzzzzzzzzzzzzzzzzz B
bxxxxxxxxxxxxxxxxxxxxxxxxxxxxxxxxxxxxxxxxxxxxxxxxxxxxxxxxxxxxxxxx Q
bxxxxxxxxxxxxxxxxxxxxxxxxxxxxxxxxxxxxxxxxxxxxxxxxxxxxxxxxxxxxxxxx =
bzzzzzzzzzzzzzzzzzzzzzzzzzzzzzzzzzzzzzzzzzzzzzzzzzzzzzzzzzzzzzzzz A
bxxxxxxxxxxxxxxxxxxxxxxxxxxxxxxxxxxxxxxxxxxxxxxxxxxxxxxxxxxxxxxxx U
bzzzzzzzzzzzzzzzzzzzzzzzzzzzzzzzzzzzzzzzzzzzzzzzzzzzzzzzzzzzzzzzz Y
bxxxxxxxxxxxxxxxxxxxxxxxxxxxxxxxxxxxxxxxxxxxxxxxxxxxxxxxxxxxxxxxx T
bzzzzzzzzzzzzzzzzzzzzzzzzzzzzzzzzzzzzzzzzzzzzzzzzzzzzzzzzzzzzzzzz X
bxxxxxxxxxxxxxxxxxxxxxxxxxxxxxxxxxxxxxxxxxxxxxxxxxxxxxxxxxxxxxxxx W
bzzzzzzzzzzzzzzzzzzzzzzzzzzzzzzzzzzzzzzzzzzzzzzzzzzzzzzzzzzzzzzzz [
bxxxxxxxxxxxxxxxxxxxxxxxxxxxxxxxxxxxxxxxxxxxxxxxxxxxxxxxxxxxxxxxx V
bzzzzzzzzzzzzzzzzzzzzzzzzzzzzzzzzzzzzzzzzzzzzzzzzzzzzzzzzzzzzzzzz Z
bxxxxxxxxxxxxxxxxxxxxxxxxxxxxxxxxxxxxxxxxxxxxxxxxxxxxxxxxxxxxxxxx \
bzzzz :
bxx 7
bzzzz n
bxx w
bzzzz p
bxx {
bxxxxxx |
bxx s
bxxxxxx t
bxxxx }
bzz j
bzzzzzz k
bzzzz H
bxx E
bzzzzzzzzzzzzzzzzzzzzzzzzzzzzzzzzzzzzzzzzzzzzzzzzzzzzzzzzzzzzzzzz _
bzzzzzzzzzzzzzzzzzzzzzzzzzzzzzzzzzzzzzzzzzzzzzzzzzzzzzzzzzzzzzzzz ^
bzzzzzzzzzzzzzzzzzzzzzzzzzzzzzzzzzzzzzzzzzzzzzzzzzzzzzzzzzzzzzzzz a
bzzzzzzzzzzzzzzzzzzzzzzzzzzzzzzzzzzzzzzzzzzzzzzzzzzzzzzzzzzzzzzzz `
bxxxxxxxxxxxxxxxxxxxxxxxxxxxxxxxxxxxxxxxxxxxxxxxxxxxxxxxxxxxxxxxx d
b00000x ]
bxx 2
bxxxxxx 3
bxxxxxxxxxxxxxxxxxxxxxxxxxxxxxxxxxxxxxxxxxxxxxxxxxxxxxxxxxxxxxxxx I
bxxxxxxxxxxxxxxxxxxxxxxxxxxxxxxxxxxxxxxxxxxxxxxxxxxxxxxxxxxxxxxxx K
bxxxxxxxxxxxxxxxxxxxxxxxxxxxxxxxxxxxxxxxxxxxxxxxxxxxxxxxxxxxxxxxx M
bxxxxxxxxxxxxxxxxxxxxxxxxxxxxxxxxxxxxxxxxxxxxxxxxxxxxxxxxxxxxxxxx J
bxxxxxxxxxxxxxxxxxxxxxxxxxxxxxxxxxxxxxxxxxxxxxxxxxxxxxxxxxxxxxxxx L
bxxxxxxxxxxxxxxxxxxxxxxxxxxxxxxxxxxxxxxxxxxxxxxxxxxxxxxxxxxxxxxxx N
bxxxxxxxxxxxxxxxxxxxxxxxxxxxxxxxxxxxxxxxxxxxxxxxxxxxxxxxxxxxxxxxx S
bxxxxxxxxxxxxxxxxxxxxxxxxxxxxxxxxxxxxxxxxxxxxxxxxxxxxxxxxxxxxxxxx b
bxxxxxxxxxxxxxxxxxxxxxxxxxxxxxxxxxxxxxxxxxxxxxxxxxxxxxxxxxxxxxxxx (
bxxxxxxxxxxxxxxxxxxxxxxxxxxxxxxxxxxxxxxxxxxxxxxxxxxxxxxxxxxxxxxxx *
bxxxxxxxxxxxxxxxxxxxxxxxxxxxxxxxxxxxxxxxxxxxxxxxxxxxxxxxxxxxxxxxx ,
bxxxxxxxxxxxxxxxxxxxxxxxxxxxxxxxxxxxxxxxxxxxxxxxxxxxxxxxxxxxxxxxx c
bxxxxxxxxxxxxxxxxxxxxxxxxxxxxxxxxxxxxxxxxxxxxxxxxxxxxxxxxxxxxxxxx )
bxxxxxxxxxxxxxxxxxxxxxxxxxxxxxxxxxxxxxxxxxxxxxxxxxxxxxxxxxxxxxxxx +
bxxxxxxxxxxxxxxxxxxxxxxxxxxxxxxxxxxxxxxxxxxxxxxxxxxxxxxxxxxxxxxxx -
bxxxxxxxxxxxxxxxxxxxxxxxxxxxxxxxxxxxxxxxxxxxxxxxxxxxxxxxxxxxxxxxx "1
bxxxxxxxxxxxxxxxxxxxxxxxxxxxxxxxxxxxxxxxxxxxxxxxxxxxxxxxxxxxxxxxx ")
bxxxxxxxxxxxxxxxxxxxxxxxxxxxxxxxxxxxxxxxxxxxxxxxxxxxxxxxxxxxxxxxx "+
bxxxxxxxxxxxxxxxxxxxxxxxxxxxxxxxxxxxxxxxxxxxxxxxxxxxxxxxxxxxxxxxx "-
bxxxxxxxxxxxxxxxxxxxxxxxxxxxxxxxxxxxxxxxxxxxxxxxxxxxxxxxxxxxxxxxx "*
bxxxxxxxxxxxxxxxxxxxxxxxxxxxxxxxxxxxxxxxxxxxxxxxxxxxxxxxxxxxxxxxx ",
bxxxxxxxxxxxxxxxxxxxxxxxxxxxxxxxxxxxxxxxxxxxxxxxxxxxxxxxxxxxxxxxx ".
x"7
x"8
x"9
z">
0"=
x"<
0"D
0"r
x"t
0"n
0"o
0"J
0#)
0#*
0"?
0"@
b00000000 "F
b00000000 "G
b0000 #0
b00000000 #-
b0000 #/
b00000000000000000000000000000000 "R
b0000 #2
b00000000 #.
b0000 #1
b00 "H
b00001 #4
b11110 #3
bxxxxxxxxxxxxxxxxxxxxxxxxxxxxxxxx "]
bxxxxxxxxxxxxxxxxxxxxxxxxxxxxxxxx "_
bxxxxxxxxxxxxxxxxxxxxxxxxxxxxxxxx "^
bxxxxxxxxxxxxxxxxxxxxxxxxxxxxxxxx "T
bxxxxxxxxxxxxxxxxxxxxxxxxxxxxxxxx "V
bxxxxxxxxxxxxxxxxxxxxxxxxxxxxxxxx "U
bxxxxxxxxxxxxxxxxxxxxxxxxxxxxxxxx "W
bxxxxxxxxxxxxxxxxxxxxxxxxxxxxxxxx "X
bxxxxxxxxxxxxxxxxxxxxxxxxxxxxxxxx "Y
bxxxxxxxxxxxxxxxxxxxxxxxxxxxxxxxx "Z
b111111 #&
b0000000011 #$
b00000 #%
b00 #+
b00000000000000000000000000000000 "L
b00000000000000000000000000000000 "O
b0000 "p
b0000 "q
b0000 "s
bxxxx "u
b00000000000000000000000000000000 "M
b00000000000000000000000000000000 "P
b0000 #7
bxxxxxxxxxxxxxxxxxxxxxxxxxxxxxxxx "l
bxxxxxxxxxxxxxxxxxxxxxxxxxxxxxxxx "m
b00000011 #,
b0001 #6
b1110 #5
b0000 "A
b0000 "B
b0000 "C
b01001110000111000000000000110001 "K
b01001110000111000000000000110001 "Q
b00000000000000000000000000000000 "S
b00000000000000000000000000000000 "N
b00001 #(
b00001 #'
b0000 "E
b00000011 "I
r0.000000000000000  "[
r0.000000000000000  "\
r0.000000000000000  "j
r0.000000000000000  "k
r0.000000000000000  "i
r0.000000000000000  "`
r0.000000000000000  "h
r0.000000000000000  "a
r0.000000000000000  "b
r0.000000000000000  "c
r0.000000000000000  "d
r0.000000000000000  "e
r0.000000000000000  "f
r0.000000000000000  "g
b0000 "x
b0000 "y
b00000000 "w
b0000 "{
b0000 "z
b0000 "~
b0000 #!
b00000000 "}
b0000 ##
b0000 #"
x"5
x"6
0";
ze
x~
z!
z"
z#
z$
z%
bzz &
bzzzzzz '
bxxxx .
x/
z""
z"#
z"$
z"%
z"&
bzz "'
bzzzzzz "(
bzzzz "/
z"0
z"2
z"3
z"4
z":
b0000 "v
b0000 "|
$end
#1000
b0001 "q
b0001 "s
b0001 "B
b0001 "|
b0001 "~
b0001 "C
b0001 ##
b00000001 "}
b00000001 "G
b00000001 #,
b00000001 "I
b1111 #5
b0001 #2
b00000001 #.
b0000000001 #$
b00001 #%
b0001 "E
b00000 #'
#2000
b0010 "q
b0010 "s
b0010 "B
b0010 "|
b0000 "~
b0010 "C
b0010 #!
b0000 ##
b00000000 "}
b00000000 "G
b0010 ##
b00000100 "}
b00000100 "G
b00000011 #,
b00000011 "I
b1110 #5
b0000 #2
b00000000 #.
b00001011 #,
b00001011 "I
b1100 #5
b00101 #4
b0010 #2
b00000100 #.
b0000001011 #$
b00011011 #,
b00011011 "I
b0101 #6
b111011 #&
b00011 #%
b0011 "E
b00010 #'
b00010 #%
b0010 "E
b00011 #'
b0000011011 #$
b00101 #(
#3000
b0011 "q
b0011 "s
b0011 "B
b0011 "|
b0001 "~
b0011 "C
b0011 "~
b0001 #"
b00000110 "}
b00000110 "G
b0111 "~
b0000 ##
b00000010 "}
b00000010 "G
b00011001 #,
b00011001 "I
b1101 #5
b0001 #7
b11100 #3
b0001 #1
b00000110 #.
b0100 ##
b00010010 "}
b00010010 "G
b00001 #4
b0000 #2
b00000010 #.
b0000011001 #$
b00000 #4
b11101 #3
b00101001 #,
b00101001 "I
b0001 #6
b1001 #5
b01000 #4
b0100 #2
b00010010 #.
b00011 #%
b0011 "E
b00010 #'
b00101010 #,
b00101010 "I
b0000 #6
b1000 #5
b01010 #4
b0000101010 #$
b01101010 #,
b01101010 "I
b1000 #6
b01101110 #,
b01101110 "I
b1010 #6
b110011 #&
b00001 #(
b00110 #'
b110001 #&
b00000 #(
b00111 #'
b0001101110 #$
b01000 #(
b01010 #(
#4000
b0100 "q
b0100 "s
b0100 "B
b0100 "|
b0110 "~
b0100 "C
b0100 "~
b0000 #!
b0000 #"
b00010000 "}
b00010000 "G
b01101100 #,
b01101100 "I
b1001 #5
b01000 #4
b0000 #7
b11111 #3
b0000 #1
b00010000 #.
b0001101100 #$
b01100000 #,
b01100000 "I
b1000 #6
b1011 #5
b01001 #4
b11110 #3
b110011 #&
b00010 #%
b0010 "E
b00110 #'
b0001100000 #$
b01100011 #,
b01100011 "I
b1001 #6
b1010 #5
b110111 #&
b00000 #%
b0000 "E
b01000 #(
b00100 #'
b0001100011 #$
b00100 #%
b0100 "E
b01001 #(
b00101 #'
#5000
1"J
b0101 "q
b0101 "s
b0101 "B
b0101 "|
b0101 "~
b0101 "C
b0101 ##
b00010001 "}
b00010001 "G
b01100001 #,
b01100001 "I
b1011 #5
b0101 #2
b00010001 #.
b0001100001 #$
b00101 #%
b0101 "E
b00100 #'
#6000
b0110 "q
b0110 "s
b0110 "B
b0110 "|
b0100 "~
b0110 "C
b0010 #!
b0100 ##
b00010000 "}
b00010000 "G
b0110 #!
b1100 ##
b0010 #"
b00011000 "}
b00011000 "G
b01100011 #,
b01100011 "I
b1010 #5
b0100 #2
b00010000 #.
b1110 #!
b1000 ##
b00001000 "}
b00001000 "G
b01001000 "}
b01001000 "G
b01101011 #,
b01101011 "I
b1000 #5
b01101 #4
b0010 #7
b11010 #3
b0010 #1
b00011000 #.
b0001101011 #$
b01111011 #,
b01111011 "I
b1101 #6
b00101 #4
b0000 #2
b00001000 #.
b10111011 #,
b10111011 "I
b0101 #6
b0000 #5
b10101 #4
b01 #+
b01 "H
b1000 #2
b01001000 #.
b110011 #&
b00111 #%
b0111 "E
b00110 #'
b00110 #%
b0110 "E
b00111 #'
b0110111011 #$
b01101 #(
b10110 #%
1"D
b11101 #(
b100011 #&
b10101 #(
b01111 #'
b00110 #%
0"D
#7000
b0111 "q
b0111 "s
b0111 "B
b0111 "|
b0101 "~
b0111 "C
b0111 "~
b0011 #"
b01001010 "}
b01001010 "G
b0001 #"
b01000010 "}
b01000010 "G
b10111001 #,
b10111001 "I
b0001 #5
b0011 #7
b11000 #3
b0011 #1
b01001010 #.
b10001 #4
b0001 #7
b11100 #3
b0001 #1
b01000010 #.
b0110111001 #$
b10000 #4
b11101 #3
b10001001 #,
b10001001 "I
b0001 #6
b0101 #5
b00111 #%
b0111 "E
b01110 #'
b10001010 #,
b10001010 "I
b0000 #6
b0100 #5
b10010 #4
b0110001010 #$
b10001110 #,
b10001110 "I
b0010 #6
b10001 #(
b01010 #'
b100001 #&
b10000 #(
b01011 #'
b0110001110 #$
b10010 #(
#8000
b1000 "q
1"r
b1000 "s
b1000 "B
b1000 "|
b0110 "~
b1000 "C
b0100 "~
b1100 #!
b0000 #"
b01000000 "}
b01000000 "G
b0000 "~
b1000 #"
b1000 #!
b0000 ##
b10001100 #,
b10001100 "I
b0101 #5
b10000 #4
b0000 #7
b11111 #3
b0000 #1
b01000000 #.
b10000000 "}
b10000000 "G
b0110001100 #$
b10000000 #,
b10000000 "I
b0000 #6
b0111 #5
b10001 #4
b11110 #3
b1000 #7
b01110 #3
b11 #+
b11 "H
b0000 #2
b1000 #1
b10000000 #.
b100011 #&
b00110 #%
b0110 "E
b01010 #'
b1110000000 #$
b10000011 #,
b10000011 "I
b0001 #6
b0110 #5
b100111 #&
b00100 #%
b0100 "E
b10000 #(
b01000 #'
b000111 #&
b10100 #%
1"D
b11000 #'
b1110000011 #$
b001111 #&
b10000 #%
b0000 "E
b10001 #(
b11001 #'
b11000 #%
b1000 "E
#9000
b1001 "q
b1001 "s
b1001 "B
b1001 "|
b0001 "~
b1001 "C
b0001 ##
b10000001 "}
b10000001 "G
b10000001 #,
b10000001 "I
b0111 #5
b0001 #2
b10000001 #.
b1110000001 #$
b11001 #%
b1001 "E
b11000 #'
#10000
0"J
b1010 "q
b1010 "s
b1010 "B
b1010 "|
b0000 "~
b1010 "C
b1010 #!
b0000 ##
b10000000 "}
b10000000 "G
b0010 ##
b10000100 "}
b10000100 "G
b10000011 #,
b10000011 "I
b0110 #5
b0000 #2
b10000000 #.
b10001011 #,
b10001011 "I
b0100 #5
b10101 #4
b0010 #2
b10000100 #.
b1110001011 #$
b10011011 #,
b10011011 "I
b0101 #6
b001011 #&
b11011 #%
b1011 "E
b11010 #'
b11010 #%
b1010 "E
b11011 #'
b1110011011 #$
b10101 #(
#11000
b1011 "q
b1011 "s
b1011 "B
b1011 "|
b0001 "~
b1011 "C
b0011 "~
b1001 #"
b10000110 "}
b10000110 "G
b0111 "~
b0001 #"
b0000 ##
b10000010 "}
b10000010 "G
b10011001 #,
b10011001 "I
b0101 #5
b1001 #7
b01100 #3
b1001 #1
b10000110 #.
b1111 "~
b0101 #"
b10100010 "}
b10100010 "G
b00100010 "}
b00100010 "G
b10001 #4
b0000 #2
b10000010 #.
b1110011001 #$
b10000 #4
b01101 #3
b10101001 #,
b10101001 "I
b0001 #6
b0001 #5
b11000 #4
b1101 #7
b00101 #3
b1101 #1
b10100010 #.
b11101001 #,
b11101001 "I
b1001 #6
b01000 #4
b10 #+
b10 "H
b0101 #7
b10101 #3
b00 #+
b00 "H
b0101 #1
b00100010 #.
b11011 #%
b1011 "E
b11010 #'
b11101010 #,
b11101010 "I
b1000 #6
b0000 #5
b01010 #4
b0011101010 #$
b11101110 #,
b11101110 "I
b1010 #6
b00101 #(
b01010 #'
b011011 #&
b10011 #%
b0011 "E
b01101 #(
b010011 #&
b01001 #(
b01110 #'
b010001 #&
b01000 #(
b01111 #'
b0011101110 #$
b110001 #&
b00011 #%
0"D
b100001 #&
b01011 #%
b1011 "E
b01010 #(
b000001 #&
b11011 #%
1"D
#12000
b1100 "q
b1100 "s
b1100 "B
b1100 "|
b1110 "~
b1100 "C
b1100 "~
b1000 #!
b0100 #"
b00100000 "}
b00100000 "G
b11101100 #,
b11101100 "I
b0001 #5
b01000 #4
b0100 #7
b10111 #3
b0100 #1
b00100000 #.
b0011101100 #$
b11100000 #,
b11100000 "I
b1000 #6
b0011 #5
b01001 #4
b10110 #3
b000011 #&
b11010 #%
b1010 "E
b01110 #'
b0011100000 #$
b11100011 #,
b11100011 "I
b1001 #6
b0010 #5
b000111 #&
b11000 #%
b1000 "E
b01000 #(
b01100 #'
b0011100011 #$
b11100 #%
b1100 "E
b01001 #(
b01101 #'
#13000
b1101 "q
b1101 "s
b1101 "B
b1101 "|
b1101 "~
b1101 "C
b0001 ##
b00100001 "}
b00100001 "G
b11100001 #,
b11100001 "I
b0011 #5
b0001 #2
b00100001 #.
b0011100001 #$
b11101 #%
b1101 "E
b01100 #'
#14000
b1110 "q
b1110 "s
b1110 "B
b1110 "|
b1100 "~
b1110 "C
b1010 #!
b0000 ##
b00100000 "}
b00100000 "G
b1110 #!
b0110 #"
b00101000 "}
b00101000 "G
b11100011 #,
b11100011 "I
b0010 #5
b0000 #2
b00100000 #.
b0010 #"
b00001000 "}
b00001000 "G
b11101011 #,
b11101011 "I
b0000 #5
b01101 #4
b0110 #7
b10010 #3
b0110 #1
b00101000 #.
b0011101011 #$
b11111011 #,
b11111011 "I
b1101 #6
b00101 #4
b0010 #7
b11010 #3
b0010 #1
b00001000 #.
b000011 #&
b11111 #%
b1111 "E
b01110 #'
b11110 #%
b1110 "E
b01111 #'
b0011111011 #$
b00111011 #,
b00111011 "I
b0101 #6
b1000 #5
b01101 #(
b0000111011 #$
b00101 #(
b00111 #'
#15000
1"J
b1111 "q
b1111 "s
b1111 "B
b1111 "|
b1101 "~
b1111 "C
b1111 "~
b0011 #"
b00001010 "}
b00001010 "G
b0001 #"
b00000010 "}
b00000010 "G
b00111001 #,
b00111001 "I
b1001 #5
b0011 #7
b11000 #3
b0011 #1
b00001010 #.
b00001 #4
b0001 #7
b11100 #3
b0001 #1
b00000010 #.
b0000111001 #$
b00000 #4
b11101 #3
b00001001 #,
b00001001 "I
b0001 #6
b1101 #5
b11111 #%
b1111 "E
b00110 #'
b00001010 #,
b00001010 "I
b0000 #6
b1100 #5
b00010 #4
b0000001010 #$
b00001110 #,
b00001110 "I
b0010 #6
b00001 #(
b00010 #'
b000001 #&
b00000 #(
b00011 #'
b0000001110 #$
b00010 #(
